D:\DATA\SANDY\20140620\158.b\045.D
Intensity Vs Time,CPS
Time [Sec],Mg24,Ca44,V51,Mn55,Rb85,Sr88,Ba138,Ce140,Pb208
0.341,66.67,5000.82,50.00,2250.17,33.33,66.67,33.33,50.00,25.00
0.672,133.33,4300.61,75.00,1575.08,0.00,33.33,33.33,25.00,75.00
1.002,0.00,5267.58,50.00,1925.12,0.00,33.33,0.00,75.00,0.00
1.334,0.00,4000.53,50.00,1500.07,33.33,0.00,66.67,25.00,75.00
1.665,100.00,5034.17,125.00,1975.13,0.00,0.00,33.33,0.00,25.00
1.996,33.33,4433.98,25.00,1850.11,0.00,0.00,33.33,25.00,50.00
2.327,0.00,4067.21,75.00,1525.08,66.67,0.00,0.00,25.00,75.00
2.658,33.33,5234.24,50.00,1800.11,66.67,33.33,33.33,25.00,75.00
2.989,66.67,4967.48,75.00,1500.07,33.33,33.33,33.33,25.00,25.00
3.320,33.33,4734.07,25.00,1875.12,33.33,0.00,33.33,0.00,50.00
3.651,33.33,4100.55,50.00,1525.08,0.00,0.00,66.67,0.00,75.00
3.982,133.33,4567.35,150.00,1825.11,33.33,0.00,33.33,100.00,50.00
4.313,0.00,4567.35,75.00,1875.12,33.33,33.33,100.00,100.00,100.00
4.644,66.67,4433.98,50.00,1675.09,0.00,33.33,0.00,50.00,50.00
4.975,33.33,4267.27,50.00,1725.10,100.00,33.33,33.33,25.00,75.00
5.306,33.33,5234.24,100.00,1650.09,100.00,0.00,0.00,0.00,100.00
5.637,0.00,3600.43,75.00,1600.09,0.00,66.67,66.67,0.00,25.00
5.968,66.67,4900.79,75.00,2050.14,100.00,0.00,33.33,125.00,100.00
6.299,33.33,4934.14,75.00,1975.13,66.67,0.00,0.00,0.00,50.00
6.630,0.00,4133.90,175.00,1625.09,0.00,66.67,33.33,0.00,75.00
6.961,0.00,4700.73,50.00,1600.09,33.33,66.67,0.00,25.00,50.00
7.292,33.33,4300.61,75.00,1700.10,33.33,0.00,33.33,25.00,100.00
7.623,66.67,4667.38,25.00,1950.13,66.67,0.00,33.33,25.00,25.00
7.954,33.33,4500.67,125.00,1650.09,33.33,33.33,0.00,75.00,50.00
8.285,100.00,4734.07,25.00,1775.10,33.33,33.33,0.00,25.00,50.00
8.616,0.00,4600.70,50.00,1600.09,133.33,33.33,33.33,50.00,50.00
8.947,33.33,4800.76,75.00,1425.07,33.33,33.33,33.33,75.00,75.00
9.278,0.00,4367.29,25.00,1800.11,33.33,33.33,33.33,0.00,75.00
9.609,0.00,5067.51,50.00,1925.12,133.33,66.67,0.00,50.00,0.00
9.940,33.33,4767.41,25.00,1600.09,66.67,33.33,0.00,0.00,50.00
10.271,33.33,4834.10,0.00,1650.09,66.67,33.33,33.33,0.00,50.00
10.602,66.67,4734.07,50.00,1750.10,0.00,33.33,33.33,0.00,75.00
10.933,0.00,3967.19,75.00,1225.05,66.67,100.00,100.00,50.00,3325.41
11.264,56871.50,66679.43,350.00,16534.07,2433.53,15508.16,16242.59,3750.49,66034.72
11.595,132904.41,140177.44,650.01,15683.16,2966.97,15775.11,31133.99,4750.79,43569.59
11.926,77059.01,87987.55,500.01,27174.48,2566.89,15474.79,6434.79,4000.56,47633.17
12.257,68050.02,138932.75,16509.02,14231.72,2000.14,9336.29,3600.46,5025.89,30534.19
12.588,53593.10,94325.43,275.00,14506.98,1433.40,5067.54,2133.49,1375.07,18913.12
12.919,32333.91,54062.75,225.00,8427.36,1300.06,7301.81,1166.71,1125.04,11429.79
13.250,29127.52,21882.42,350.00,5400.97,833.36,2433.53,1933.46,1325.06,9778.51
13.581,13906.28,36677.58,375.00,5576.03,533.34,5134.23,566.68,3150.35,6751.67
13.912,17710.18,26456.36,150.00,12079.84,1000.03,3567.10,1066.71,1025.04,15458.77
14.243,29595.08,72941.46,325.00,12705.35,1100.04,15975.33,11237.76,4400.68,25173.24
14.574,77327.00,195483.71,450.01,29654.15,1866.78,9569.78,4467.37,3175.35,29106.08
14.905,53927.60,89161.02,325.00,14456.93,1266.72,7268.46,1900.13,1325.06,13656.84
15.236,23785.02,38448.62,625.01,6401.36,1566.75,7501.91,1366.73,1900.13,22042.83
15.567,35975.31,52758.17,200.00,7101.67,1400.07,7635.31,4700.78,7276.86,20615.59
15.898,28493.00,63934.33,250.00,6126.24,500.01,8635.87,2833.62,1875.12,18061.97
16.230,21281.36,42091.59,550.01,7026.64,600.01,19713.18,3133.68,2125.16,54006.88
16.561,96937.51,122962.59,550.01,16734.29,533.34,11004.11,3667.14,1850.12,67089.86
16.892,60853.34,57843.31,150.00,7001.63,633.35,15374.69,1600.09,1250.06,25298.48
17.223,14406.74,33470.19,100.00,6051.21,366.67,4934.16,1733.44,425.01,15058.32
17.554,8802.52,34706.29,200.00,3675.45,666.68,10470.39,800.02,375.00,31235.79
17.885,23517.95,33971.30,425.01,6901.58,2966.97,8068.88,3200.36,1575.09,81342.21
18.216,80141.33,66980.75,750.02,13631.16,3533.76,21882.91,6368.09,1975.14,40359.72
18.547,40620.17,70094.75,400.01,5876.15,1100.04,20147.11,2366.86,1150.05,39908.39
18.878,28493.00,83093.43,725.02,8002.12,1066.71,13572.92,1433.41,5225.96,45350.38
19.209,25354.19,91810.09,425.01,13180.76,200.00,10537.10,2200.17,850.03,1870834.81
19.540,245711.50,141254.02,600.01,15733.21,333.34,26223.32,12705.66,3000.32,928005.49
19.871,313764.36,249804.89,600.01,12254.98,300.00,38650.65,7301.87,3250.37,904951.29
20.202,137847.59,240625.10,475.01,12655.31,633.35,68559.20,10203.65,6876.66,820945.82
20.533,233354.86,2374924.01,3275.36,32409.82,6001.22,676695.78,23252.30,16985.14,909542.50
20.864,328330.05,8232678.31,2450.20,43788.54,8435.74,3177552.94,45104.63,12705.67,459395.18
21.195,169966.17,18830571.25,2450.20,20213.55,3867.17,5153078.76,32737.58,4100.59,145776.10
21.526,105560.59,19771254.61,325.00,12855.48,3000.30,4579766.25,27426.38,3475.42,101023.34
21.857,111905.15,16439340.99,700.02,9878.24,2333.52,4764954.79,32035.98,2050.15,292150.54
22.188,115229.52,18013854.57,350.00,15257.72,4167.25,5767975.13,28528.54,1750.11,235722.64
22.519,97675.47,16799820.17,400.01,11329.26,1966.80,5190493.87,20982.11,2100.16,102736.07
22.850,52991.02,11228121.08,425.01,15507.98,2800.27,6145563.16,37382.33,24671.38,179854.92
23.181,169022.56,18480352.50,425.01,17635.32,3700.46,5443040.23,32804.40,4450.70,154243.61
23.512,104654.43,16730045.17,325.00,16859.43,3267.03,4401371.45,26157.33,3175.35,117958.68
23.843,68920.57,11591714.84,200.00,13230.81,2800.27,4253850.88,24454.31,4550.73,199170.94
24.174,120200.65,15333588.88,850.02,19011.99,2333.52,5553443.87,33639.68,3450.42,183883.16
24.505,85503.40,15439530.55,700.02,22391.63,2433.53,4762885.00,30465.88,3775.50,188926.47
24.836,78600.08,13441564.88,425.01,23318.03,1466.74,3886744.62,25489.45,3525.44,107018.85
25.167,76154.51,13654504.47,175.00,24369.69,1200.05,5432525.64,29964.82,2925.30,107018.85
25.498,58276.73,14250197.19,375.00,12855.48,1566.75,3088344.86,14707.59,2250.18,150148.20
25.829,59180.17,13219839.88,200.00,13556.10,1433.40,3591922.74,18812.41,2375.20,141961.10
26.160,65070.53,11002478.37,300.00,10278.51,1666.76,3444141.48,27559.97,3275.38,200946.73
26.491,85335.80,15099488.88,350.00,20839.40,1400.07,4699107.92,24487.70,11579.71,166562.43
26.822,68820.11,15374057.64,425.01,12780.42,1066.71,3070221.16,17644.26,9653.28,202976.52
27.153,97474.20,15184489.92,725.02,19687.86,2866.95,4893179.80,30432.47,3650.47,157783.80
27.484,88520.37,17340467.05,350.00,18811.74,3967.20,4293534.73,21349.32,2500.22,82499.15
27.815,131895.80,13396754.47,150.00,11104.09,2633.57,2770866.21,13539.76,3475.42,48009.48
28.146,68853.60,10498066.90,250.00,10228.47,2533.55,2660789.90,12805.75,2800.28,70431.66
28.477,67346.95,10472737.73,225.00,13831.34,1833.45,2416820.89,9903.44,9102.91,111933.13
28.808,92879.26,12988185.71,825.02,20589.06,3833.83,3475905.81,19847.15,5951.24,151841.84
29.139,89559.69,14365319.07,625.01,11804.62,2233.50,2570220.11,16075.73,2175.17,130042.98
29.470,86274.35,17266978.51,425.01,25797.06,3000.30,3311577.68,18411.89,1700.10,158593.13
29.801,72135.23,12246626.32,75.00,13506.05,2266.84,2455689.12,17544.13,3325.39,93066.92
30.132,53927.60,11581304.43,225.00,11029.03,1266.72,2246001.61,9636.59,3325.39,160717.84
30.463,107171.65,9503577.30,275.00,8877.61,866.69,2467106.57,10437.15,2550.23,128074.43
30.794,48275.55,8724546.55,225.00,9027.70,1066.71,2766937.56,12372.04,1675.10,137238.06
31.125,60585.62,11224783.58,225.00,30781.42,1866.78,2795191.47,23719.73,2800.28,188242.11
31.456,129945.99,13356001.34,475.01,24169.37,1133.38,2660206.05,12305.31,1975.14,96540.99
31.786,54362.46,11969922.14,100.00,18110.88,633.35,2773159.70,17944.63,1775.11,192855.99
32.118,90096.14,13489135.72,300.00,24494.89,566.68,2525133.91,16743.17,1525.08,154167.74
32.449,63196.08,10349052.31,150.00,14456.93,966.70,2219602.39,16743.17,3350.39,125248.33
32.780,57875.23,9469786.67,500.01,11204.17,1233.38,2047119.06,13139.39,1750.11,145144.41
33.111,55934.74,8814784.57,150.00,10428.61,833.36,2533483.65,15208.11,2375.20,182666.97
33.442,63095.67,9806042.93,150.00,12955.57,400.01,2119051.61,23185.52,1900.13,221232.55
33.773,80744.48,13966423.23,350.00,18411.24,600.01,2415463.07,17677.63,1750.11,178309.77
34.104,79069.15,12675032.57,300.00,19787.98,1733.44,3226575.85,32737.58,2150.16,281224.08
34.435,168078.98,13081691.96,175.00,14657.13,1500.08,2031743.93,19313.08,1525.08,150375.71
34.766,57574.10,9432191.88,250.00,16233.74,2166.83,1525007.46,15675.29,2300.19,144057.94
35.097,64635.37,8468523.63,300.00,12430.13,1166.71,1501112.66,11104.33,3750.49,158744.89
35.428,57607.56,10283115.85,275.00,13681.21,1600.09,2204628.96,13239.48,1900.13,110698.11
35.760,132265.60,13296814.88,825.02,12455.15,1200.05,1882488.71,27493.17,1750.11,162033.27
36.091,126181.54,10039306.47,225.00,12805.44,1700.10,1967879.73,14574.12,3450.42,278519.37
36.422,114222.05,11564986.72,275.00,18486.34,2166.83,2211389.11,14474.02,2575.23,148454.80
36.753,81548.70,8393841.33,425.01,15983.48,1300.06,1750616.45,11171.05,2775.27,259346.27
37.084,117681.30,7943785.59,250.00,33612.45,1033.37,2066037.81,10103.58,3000.32,176511.59
37.415,89794.39,8142660.08,275.00,18611.49,933.36,1599684.67,50121.36,4175.61,286507.53
37.746,71465.45,8680025.19,475.01,22391.63,800.02,2088769.19,14907.80,5501.06,431607.97
38.077,227501.57,12692508.62,925.03,32935.96,1366.73,2110088.98,13372.94,3150.35,216304.33
38.408,90867.32,9376288.75,575.01,42660.31,1600.09,2430755.26,17210.39,5551.08,335994.47
38.739,81816.77,11358652.34,475.01,21890.89,2200.16,1971121.14,10470.51,3425.41,214704.30
39.070,77561.52,7939257.47,325.00,15357.83,2700.25,1900513.32,13673.23,3025.32,230382.38
39.401,64066.33,10115463.77,500.01,18461.31,3767.15,2584593.29,12505.49,3025.32,202012.33
39.732,84497.87,11911586.72,475.01,15082.55,1933.46,2716213.08,12572.21,2600.24,212545.85
40.063,66141.75,11241646.08,625.01,26448.19,966.70,3321583.67,16075.73,1925.13,332971.54
40.394,115397.45,13949244.06,200.00,43738.40,466.67,2663753.97,12372.04,2975.31,97951.02
40.725,66811.29,9089965.83,400.01,13005.61,600.01,2552054.74,13306.21,3775.50,241217.63
41.056,130147.68,13816646.14,475.01,24269.53,700.02,2891403.71,16275.96,3525.44,404288.44
41.386,142624.11,10481723.15,2825.26,37922.67,1333.39,2898511.78,27827.15,5476.05,384528.33
41.718,125979.89,12730041.95,775.02,17560.23,666.68,2546751.62,10070.23,2050.15,301833.31
42.049,70059.02,11449528.38,375.00,14857.32,833.36,3153260.75,14006.88,3875.53,480065.15
42.380,117244.66,13632819.05,600.01,20964.58,600.01,3392025.86,17978.01,2900.30,428177.21
42.711,192664.44,12770419.04,575.01,34865.30,733.35,2559200.06,13106.03,3975.56,252214.17
43.042,134551.96,11629920.05,800.02,30731.31,700.02,3906487.07,20581.53,9102.91,535526.72
43.373,163361.97,13277199.26,1150.04,34589.66,566.68,4315744.63,36713.92,5551.08,1467177.96
43.704,158275.93,16272883.70,650.01,27349.80,266.67,4384439.68,31568.27,4725.78,1466960.77
44.035,278665.50,16920693.09,625.01,25145.97,200.00,4262155.30,20815.20,3650.47,1144258.23
44.366,109924.28,15558300.35,325.00,19037.02,233.34,3449618.31,16576.31,2525.22,1025862.23
44.697,139865.66,11669304.43,475.01,33837.96,133.33,3890644.36,19212.95,7927.21,3859425.48
45.028,1322328.68,10898025.24,3200.34,51211.88,1033.37,2605399.80,20648.29,18286.75,4261593.06
45.359,4138794.10,8255638.73,800.02,25972.37,300.00,2017813.59,46074.39,5976.26,1743657.46
45.690,220079.03,6090105.34,1000.03,15658.13,133.33,1256659.40,11037.61,7802.14,703330.14
46.021,353477.61,2811692.25,4825.77,32109.18,433.34,1943049.39,25556.24,13306.22,1553541.73
46.352,256180.02,7956923.09,675.02,18461.31,933.36,3487314.92,16576.31,5300.99,867077.85
46.683,157231.97,12823153.41,325.00,13055.65,766.69,4118004.52,29430.37,2650.25,708171.74
47.014,149354.14,12345039.86,850.02,27625.31,366.67,4554510.00,29563.98,4500.71,678885.37
47.345,166933.27,15196685.76,250.00,25546.64,266.67,5173744.39,27693.56,4675.77,648874.14
47.676,111670.11,13067337.79,450.01,21265.00,266.67,4092983.69,18411.89,3225.37,743428.24
48.007,83257.81,12741886.74,225.00,25171.01,333.34,4403565.72,22083.77,2875.29,468057.77
48.338,63631.19,14037053.44,275.00,24820.43,433.34,3250868.04,14974.53,10253.69,386765.37
48.669,74111.25,12704328.41,275.00,18110.88,1133.38,3623890.19,14974.53,5150.93,492963.88
49.000,105929.77,11757989.85,2400.19,14657.13,2000.14,2507800.58,13406.31,3425.41,467799.13
49.331,129038.41,13032803.42,525.01,27324.76,2200.16,3057073.25,16609.68,14207.09,336045.69
49.662,81883.81,12705953.41,375.00,22216.37,2333.52,3286263.09,17076.90,4075.58,298357.97
49.993,99151.53,15920152.44,575.01,32209.40,1266.72,3734314.15,22684.72,4625.75,216659.92
50.324,40620.17,11528020.05,300.00,17510.17,2133.49,3287000.07,20581.53,7627.04,443093.13
50.655,132702.67,14447731.57,400.01,23267.96,2033.47,4476143.85,21416.09,10303.73,415364.41
50.986,95327.49,16571401.41,275.00,13881.39,900.03,4056462.59,13573.13,5676.13,441234.24
51.317,99453.47,12574717.99,375.00,11204.17,666.68,3899788.89,16542.94,5351.01,499080.77
51.648,113013.19,14879096.17,550.01,17309.94,700.02,3829512.33,17510.76,5501.06,525730.87
51.979,62158.53,15081877.42,550.01,16934.51,600.01,3564273.26,16409.45,4000.56,340914.49
52.310,45266.44,11442200.26,225.00,18261.06,466.67,3226186.79,14774.33,5351.01,809198.02
52.641,102976.51,10224064.81,1625.09,14281.77,433.34,3393462.32,15775.40,3225.37,648900.26
52.972,79940.30,11284908.59,4775.76,26297.93,900.03,3281725.85,15908.88,2050.15,413148.45
53.303,69087.97,10867791.91,350.00,8452.37,900.03,2206951.35,9136.26,1650.10,310065.17
53.634,60552.15,7746287.67,300.00,9052.72,466.67,2917608.66,10337.08,2250.18,225654.20
53.965,42959.85,11664123.18,350.00,10403.59,266.67,3035885.74,11204.41,2200.17,249107.74
54.296,49512.81,11695386.72,400.01,13981.49,400.01,2974493.04,12572.21,2900.30,223494.02
54.627,44497.53,11887772.14,125.00,11954.74,633.35,2986469.34,13906.79,2225.17,184668.69
54.958,41589.42,10614178.36,200.00,10228.47,333.34,2836937.04,7535.33,1675.10,181096.18
55.290,36242.60,11327315.88,225.00,6901.58,33.33,2433400.58,7935.54,1275.06,123860.73
55.621,32901.78,9861325.22,250.00,6151.26,633.35,2756853.19,8702.66,1300.06,131481.68
55.952,36309.43,9530389.80,150.00,6376.35,733.35,2420778.44,7935.54,2150.16,136379.51
56.283,71431.97,10408282.52,250.00,14982.45,1266.72,3486636.02,15508.44,5651.12,204625.92
56.614,55165.30,12271784.65,325.00,12830.46,466.67,3085070.38,12338.67,2900.30,157429.78
56.945,34371.65,11370738.80,225.00,10078.37,533.34,2820195.64,15775.40,1600.09,125778.18
57.276,63731.62,10761754.41,500.01,18786.71,366.67,3012748.77,19413.22,2125.16,91883.94
57.607,69891.59,12169533.61,975.03,11554.43,766.69,3254821.69,11037.61,1550.08,111555.06
57.938,29929.06,10736625.24,200.00,6801.54,1233.38,3699300.08,14740.96,1450.07,120606.72
58.269,37077.92,14204748.23,175.00,7326.78,1266.72,4079781.86,18578.77,1900.13,146407.83
58.600,34505.28,12748573.20,75.00,8927.64,1900.12,4221076.40,27392.98,2375.20,137818.89
58.931,58879.02,12428813.82,125.00,12605.27,1933.46,4938245.42,26591.46,3575.45,120884.16
59.262,74379.20,12752552.37,225.00,10853.91,1366.73,4974435.53,26457.88,1450.07,143603.21
59.593,119965.48,12938464.87,125.00,10503.66,1400.07,5327652.72,22517.78,3200.36,198359.20
59.924,64601.90,16744249.33,225.00,16408.93,3333.71,4810840.21,19313.08,1850.12,115891.05
60.255,48844.01,11801616.93,200.00,10303.52,3066.99,3462277.68,15007.90,975.03,120833.73
60.586,36844.03,12016149.23,100.00,7351.79,1933.46,4620870.42,20448.00,1100.04,95357.70
60.917,27190.65,13194418.00,125.00,4650.72,1100.04,4211770.15,16142.48,975.03,100721.11
61.248,29160.92,12105663.81,225.00,6476.39,1000.03,4954390.74,23018.58,1950.13,194504.22
61.579,1075707.64,13277140.92,175.00,10153.42,1133.38,5354101.68,24955.17,2000.14,338684.87
61.910,139659.83,12596250.28,250.00,13606.14,1166.71,5307376.16,21549.62,1600.09,241955.55
62.241,102406.07,10493437.73,600.01,17585.26,1766.77,4510814.68,22350.86,5050.90,214196.42
62.572,81716.25,12227386.73,200.00,16033.53,2166.83,4030419.36,22784.88,2425.21,519991.76
62.903,76221.52,12108019.02,300.00,10078.37,1733.44,3888470.92,14140.35,1500.08,306741.10
63.234,50750.16,11321283.59,150.00,4900.80,1233.38,4033557.38,15742.03,675.02,195898.97
63.565,50215.08,10489508.57,175.00,8702.51,1833.45,4343936.30,17911.26,1225.05,444513.29
63.896,326014.95,13433630.51,325.00,11504.39,1866.78,5470387.62,21983.62,2650.25,295547.69
64.227,48409.31,16810303.50,175.00,8152.21,1300.06,5110426.68,17277.14,1075.04,261206.35
64.558,68987.52,13799031.56,525.01,5576.03,1200.05,3918653.99,15942.25,1650.10,559356.56
64.889,88453.32,11535563.80,175.00,7551.89,500.01,3196831.84,37749.96,2300.19,1723109.02
65.220,107574.44,10810511.70,250.00,7026.64,200.00,2894657.62,13606.50,2050.15,3088062.37
65.551,156356.47,11260917.96,225.00,6201.28,133.33,3331345.13,78214.15,1600.09,921425.70
65.882,88654.47,11283626.29,250.00,6851.56,266.67,2265094.32,11104.33,2475.22,1244451.20
66.213,388540.70,10118866.89,550.01,16759.32,533.34,2815604.75,13906.79,13055.99,1617328.26
66.544,336026.77,8256419.98,650.01,13105.70,300.00,1241714.87,12872.48,3325.39,1546513.51
66.875,522241.39,5011603.76,1225.05,16458.98,433.34,754649.69,14173.72,2125.16,4012700.87
67.206,477661.86,1492631.28,700.02,10203.45,66.67,132896.86,6034.61,2225.17,1798674.65
67.537,172022.17,519027.49,400.01,6076.22,100.00,50018.12,3600.46,500.01,767309.39
67.868,63832.02,91541.82,400.01,5876.15,133.33,17243.42,2866.96,275.00,977679.12
68.199,75216.60,60286.11,300.00,3200.34,133.33,9569.78,1633.43,225.00,677388.49
68.530,57875.23,38949.89,200.00,2600.22,133.33,7668.66,1200.05,225.00,480116.95
68.861,1118540.00,39183.83,775.02,2950.29,66.67,7735.36,17811.13,400.01,861755.00
69.192,303746.30,59583.36,750.02,7276.76,100.00,9036.11,3000.32,1750.11,787505.19
69.523,146661.79,52958.87,550.01,3575.42,100.00,9169.52,3067.00,2575.23,575248.45
69.854,192900.70,30864.68,325.00,3525.41,166.67,7035.01,2466.88,1725.10,545693.62
70.185,348772.18,53326.82,2725.25,6301.32,233.34,5200.92,3267.04,575.01,770867.45
70.516,104822.23,39284.08,150.00,5826.13,133.33,4934.16,4867.50,4550.73,1588738.90
70.847,195162.26,39651.71,150.00,4800.76,133.33,6067.92,3533.77,1000.04,976579.42
71.178,206542.62,148994.16,550.01,5175.89,33.33,9336.29,20247.71,3550.44,947477.56
71.509,134451.08,75286.19,425.01,3725.46,266.67,4834.13,10937.53,5100.91,2760742.05
71.840,477971.27,75989.69,525.01,10503.66,166.67,6568.13,9436.46,1500.08,1864398.67
72.170,717885.95,40487.25,300.00,6701.49,33.33,4567.37,5467.72,4375.67,1766455.51
72.502,424950.40,45869.18,900.03,6101.24,100.00,3533.76,8035.60,4425.69,7347890.01
72.833,513832.11,43462.12,325.00,4925.81,166.67,6034.57,8169.01,2000.14,3299669.21
73.164,306010.65,26155.84,325.00,6376.35,466.67,4600.72,16876.66,7426.94,3267958.28
73.495,378870.91,78468.91,350.00,9928.27,133.33,4500.69,8569.24,4900.84,830156.95
73.826,72637.59,17476.72,100.00,2275.17,200.00,900.03,1800.11,150.00,230102.72
74.157,19211.98,13472.64,25.00,2350.18,133.33,700.02,533.34,175.00,93570.36
74.488,13038.85,99760.00,75.00,1775.10,33.33,166.67,200.00,225.00,59228.52
74.819,3500.40,7435.15,50.00,1775.10,100.00,200.00,333.34,125.00,21842.50
75.151,5100.84,7235.06,75.00,1475.07,33.33,200.00,266.67,100.00,14357.57
75.482,1500.07,11204.13,100.00,1800.11,66.67,33.33,166.67,50.00,6051.34
75.813,1600.08,10937.27,150.00,1975.13,0.00,233.34,100.00,50.00,6426.52
76.144,1933.45,7535.20,75.00,2350.18,66.67,166.67,133.33,75.00,4000.59
76.475,2300.17,6501.39,200.00,1600.09,33.33,200.00,33.33,25.00,2825.29
76.806,1766.77,6534.74,75.00,2150.15,66.67,100.00,433.34,25.00,3125.36
77.137,866.69,6668.13,25.00,2100.15,0.00,233.34,66.67,0.00,3125.36
77.468,1266.72,5701.07,0.00,2100.15,33.33,133.33,233.34,25.00,5301.03
77.799,2066.81,6167.92,50.00,2150.15,66.67,333.34,133.33,175.00,8877.89
78.130,4667.37,7335.11,75.00,2175.16,166.67,1333.39,1900.13,475.01,104423.84
78.461,29862.26,13139.02,200.00,3300.36,366.67,1733.44,3500.43,375.00,218971.44
78.792,50449.17,26456.36,125.00,2725.25,300.00,1566.75,1033.37,475.01,185935.76
79.123,96166.02,77329.75,250.00,4575.69,400.01,3533.76,5767.83,675.02,738521.79
79.454,171314.36,124205.97,1200.05,5551.02,200.00,2166.83,2266.85,1200.05,1674282.85
79.785,85000.64,41255.97,300.00,4725.74,300.00,2833.61,2066.82,325.00,344463.44
80.116,62392.81,16842.67,325.00,2875.27,100.00,2066.81,933.36,200.00,493300.79
80.447,95964.76,12138.18,300.00,3200.34,266.67,1700.10,1433.41,225.00,399577.38
80.778,62928.32,39484.61,500.01,7852.05,233.34,5067.54,32269.85,400.01,477968.22
81.109,58577.87,29228.11,225.00,3300.36,133.33,1366.73,75633.60,925.03,287171.30
81.440,99923.15,21682.14,100.00,4500.67,133.33,3133.67,2400.20,575.01,388488.39
81.770,186252.97,21415.09,125.00,4150.57,133.33,2933.63,2333.52,400.01,424644.10
82.102,58812.10,16742.56,475.01,2750.25,100.00,2133.49,16910.03,300.00,478693.03
82.433,86676.60,16141.91,275.00,3025.30,66.67,2433.53,2066.82,475.01,1425968.68
82.764,528689.24,24619.95,275.00,10478.64,166.67,1233.38,3400.41,175.00,745355.83
83.095,90263.78,7135.01,175.00,2575.22,0.00,166.67,500.01,25.00,65205.73
83.426,15808.11,7401.80,25.00,2125.15,66.67,33.33,66.67,50.00,15659.00
83.757,1800.11,5200.89,75.00,2725.25,66.67,166.67,66.67,75.00,5851.26
84.088,1900.12,5934.49,100.00,1725.10,33.33,33.33,66.67,25.00,2175.17
84.419,200.00,5134.20,75.00,2200.16,66.67,33.33,33.33,25.00,1875.13
84.750,233.34,5067.51,0.00,1625.09,33.33,33.33,0.00,25.00,1475.08
85.081,100.00,5200.89,50.00,1800.11,66.67,0.00,0.00,25.00,875.03
85.412,100.00,5100.86,150.00,1900.12,33.33,33.33,0.00,0.00,450.01
85.743,733.35,5667.72,0.00,1850.11,33.33,33.33,133.33,50.00,625.01
86.074,11971.32,4900.79,75.00,1650.09,33.33,33.33,33.33,0.00,550.01
86.405,66.67,5034.17,100.00,2125.15,0.00,33.33,33.33,0.00,350.00
86.736,33.33,4433.98,50.00,1800.11,33.33,66.67,0.00,50.00,275.00
87.067,33.33,5067.51,50.00,1825.11,0.00,66.67,33.33,25.00,75.00
87.398,33.33,4900.79,50.00,1925.12,0.00,166.67,0.00,0.00,250.00
87.729,0.00,5167.55,75.00,2025.14,66.67,100.00,100.00,25.00,75.00
88.060,33.33,4667.38,50.00,1900.12,33.33,33.33,0.00,50.00,100.00
88.391,33.33,4100.55,100.00,1775.10,66.67,33.33,33.33,0.00,225.00
88.722,0.00,5667.72,50.00,1750.10,66.67,100.00,0.00,25.00,75.00
89.053,0.00,4400.64,25.00,2175.16,33.33,33.33,0.00,0.00,200.00
89.384,66.67,4700.73,50.00,2075.14,100.00,500.01,33.33,100.00,200.00
89.715,66.67,4934.14,50.00,1750.10,33.33,66.67,33.33,50.00,75.00
90.046,33.33,4800.76,50.00,1675.09,33.33,66.67,33.33,50.00,100.00
90.377,33.33,4534.01,25.00,1800.11,100.00,33.33,0.00,25.00,275.00
90.704,66.67,4967.48,0.00,1825.11,0.00,0.00,66.67,25.00,100.00
