D:\DATA\SANDY\20140620\158.b\028.D
Intensity Vs Time,CPS
Time [Sec],Mg24,Ca44,V51,Mn55,Rb85,Sr88,Ba138,Ce140,Pb208
0.341,66.67,4467.32,25.00,1650.09,33.33,33.33,33.33,50.00,50.00
0.672,33.33,4467.32,75.00,1800.11,0.00,66.67,66.67,0.00,100.00
1.002,0.00,4834.10,50.00,1650.09,33.33,66.67,0.00,50.00,100.00
1.334,66.67,3733.79,100.00,1800.11,100.00,0.00,0.00,0.00,25.00
1.665,0.00,4634.04,75.00,1325.06,33.33,0.00,0.00,0.00,100.00
1.996,33.33,4200.58,0.00,1575.08,33.33,33.33,33.33,25.00,75.00
2.327,66.67,3833.82,50.00,1875.12,33.33,0.00,33.33,25.00,25.00
2.658,33.33,4934.14,75.00,1300.06,0.00,33.33,0.00,25.00,50.00
2.989,0.00,4800.76,25.00,1900.12,100.00,33.33,33.33,0.00,100.00
3.320,33.33,4300.61,100.00,1700.10,0.00,33.33,0.00,25.00,150.00
3.651,0.00,4467.32,125.00,1950.13,33.33,0.00,33.33,0.00,0.00
3.982,0.00,4667.38,25.00,1750.10,33.33,66.67,0.00,100.00,75.00
4.313,100.00,4067.21,25.00,1650.09,0.00,66.67,66.67,25.00,100.00
4.644,166.67,3867.16,75.00,1600.09,33.33,100.00,0.00,25.00,50.00
4.975,33.33,4867.45,25.00,1700.10,66.67,0.00,0.00,25.00,75.00
5.307,66.67,4333.95,50.00,1825.11,0.00,66.67,0.00,75.00,75.00
5.638,0.00,4400.64,75.00,1850.11,33.33,0.00,33.33,50.00,25.00
5.969,66.67,4767.41,25.00,1925.12,0.00,0.00,66.67,50.00,25.00
6.300,33.33,4167.24,125.00,1525.08,166.67,33.33,0.00,25.00,75.00
6.631,33.33,4433.98,50.00,1525.08,0.00,100.00,33.33,25.00,75.00
6.962,33.33,4467.32,175.00,1850.11,166.67,0.00,0.00,50.00,50.00
7.293,66.67,4567.35,50.00,1450.07,66.67,66.67,66.67,50.00,50.00
7.624,133.33,4400.64,50.00,1100.04,33.33,66.67,33.33,25.00,100.00
7.955,33.33,4467.32,25.00,1600.09,0.00,33.33,0.00,25.00,25.00
8.286,66.67,4200.58,0.00,1575.08,100.00,0.00,33.33,50.00,0.00
8.617,33.33,3900.50,50.00,1400.07,66.67,33.33,33.33,0.00,75.00
8.948,0.00,3700.45,50.00,1425.07,0.00,0.00,0.00,0.00,100.00
9.279,66.67,4967.48,0.00,1775.10,33.33,0.00,66.67,25.00,100.00
9.610,233.34,4333.95,50.00,1800.11,33.33,0.00,33.33,25.00,75.00
9.941,66.67,4400.64,50.00,1750.10,66.67,0.00,0.00,0.00,50.00
10.272,33.33,4167.24,0.00,1600.09,0.00,66.67,0.00,0.00,50.00
10.602,100.00,4367.29,25.00,1725.10,33.33,0.00,0.00,100.00,25.00
10.934,166.67,4600.70,25.00,1425.07,100.00,0.00,0.00,0.00,2250.19
11.265,18110.64,35508.14,450.01,16283.79,2066.81,13339.37,4600.74,5175.94,18112.04
11.596,51519.37,63164.45,375.00,17385.02,1766.77,11404.42,6768.27,13606.51,11930.22
11.927,34739.14,76894.23,450.01,11929.72,666.68,13973.29,2133.49,5801.18,14182.38
12.258,36543.31,47708.17,175.00,6176.27,633.35,5634.41,733.35,1475.08,5826.25
12.589,20747.30,35708.61,225.00,5776.11,766.69,7902.12,4300.65,5100.91,14207.41
12.920,18077.27,142801.74,125.00,7426.83,700.02,53296.25,5434.37,3475.42,15408.71
13.251,33369.45,113791.49,300.00,19487.60,700.02,15841.85,4100.59,2425.21,14307.51
13.582,57707.94,114463.18,225.00,12104.86,966.70,31099.47,1400.07,1700.10,20615.59
13.913,41154.93,201697.58,125.00,11954.74,1066.71,28928.38,9369.75,1775.11,64929.43
14.244,83358.34,620318.18,1300.06,21365.14,4267.28,1364926.72,26424.49,5726.15,125424.95
14.575,172022.17,13096965.92,825.02,48302.30,6134.61,4161894.36,35076.47,20690.03,282678.74
14.906,153864.90,20992629.64,225.00,21790.74,6668.17,5711040.75,42429.76,2625.24,295854.25
15.237,134215.72,19235237.93,475.01,22416.66,3567.10,4908683.44,39153.74,2400.20,145043.33
15.568,178798.72,17455234.77,300.00,19863.09,2166.83,5330687.10,41527.11,2375.20,152448.56
15.899,109857.13,18908233.76,500.01,27925.86,2800.27,5022887.09,33138.50,5075.91,205361.87
16.230,106466.79,15264244.09,225.00,17159.77,2100.15,4410487.08,34441.59,66354.40,166587.72
16.561,108312.94,20784960.88,300.00,22166.29,2566.89,6824356.40,46509.14,1950.13,182768.30
16.892,82554.03,19530581.69,250.00,13180.76,2833.61,5075106.36,27192.60,2650.25,158593.13
17.223,90062.62,14703543.04,250.00,11754.58,2300.18,4776877.19,35009.64,14457.34,904657.74
17.554,217255.16,14148629.48,650.01,42484.81,866.69,5730174.61,37449.16,3350.39,462523.40
17.885,95159.79,10814120.03,300.00,13481.03,1366.73,4171245.93,25990.36,3350.39,555191.13
18.216,120032.68,9535881.46,400.01,18035.79,1466.74,3505596.17,22851.65,3050.33,505641.22
18.547,120973.34,12399880.49,600.01,12380.08,1633.42,3872727.43,21916.85,2775.27,406760.43
18.878,201239.75,13444562.80,2250.17,14356.84,3333.71,5388511.58,38886.34,3625.46,321961.51
19.209,160094.58,15873429.52,400.01,12855.48,2933.63,4381069.89,32670.76,4575.74,237935.60
19.540,94623.17,13413445.09,225.00,14281.77,3167.01,4127008.43,24220.57,2250.18,342631.75
19.871,102171.18,13874802.39,250.00,12880.50,2733.59,3236672.73,15908.88,2300.19,218996.88
20.202,73876.79,10145997.10,175.00,11629.49,1700.10,2348758.91,13339.58,1925.13,262403.99
20.533,185477.01,9842611.68,325.00,13631.16,2400.20,2429749.53,12672.30,2200.17,351606.26
20.864,149825.36,9428197.09,675.02,16534.07,1500.08,2795700.58,21583.01,4175.61,603952.02
21.195,123459.60,12306374.23,275.00,16959.54,1200.05,3134664.91,21749.93,1700.10,778773.85
21.526,127626.71,13766511.77,850.02,24570.02,2466.87,2995146.42,25021.96,14857.75,598780.97
21.857,180316.25,12646351.32,525.01,21365.14,4033.88,3256013.87,27192.60,4600.74,749524.19
22.188,263061.27,16171845.15,950.03,40930.52,4467.34,4317561.82,30699.71,8952.82,895346.50
22.519,170404.32,16967704.55,475.01,21540.39,2133.49,3111486.27,25255.70,2775.27,904871.31
22.850,224085.37,14949923.25,500.01,30756.36,2700.25,3235700.07,31468.05,2250.18,927681.86
23.181,233490.19,15587106.60,525.01,39601.98,2000.14,3240692.52,38384.98,2275.18,883669.55
23.512,162317.65,15163479.51,475.01,21815.78,1700.10,2496913.08,46275.05,2775.27,479858.02
23.843,121712.46,8752107.49,425.01,20338.72,1400.07,2430357.87,25188.92,2950.31,430885.61
24.174,135258.11,11885695.06,300.00,21039.68,1366.73,2404049.79,17877.88,3425.41,385531.14
24.505,170842.50,13412419.05,350.00,40629.71,1333.39,2712909.44,21082.26,2375.20,338069.88
24.837,167270.25,12435945.07,275.00,26999.17,1766.77,2538637.82,21482.85,1500.08,266201.62
25.168,140000.20,14287168.03,625.01,44039.27,666.68,3163158.92,25289.09,2300.19,303264.56
25.499,160532.44,12635645.07,275.00,36845.00,2300.18,2686746.15,21315.94,5576.09,279437.90
25.830,167202.85,9362154.38,925.03,34288.97,3267.03,2423465.16,22885.03,7877.18,288601.03
26.161,228922.38,9367631.46,1250.05,30455.75,2966.97,2270877.65,21916.85,10253.69,162944.03
26.492,249301.84,10559111.69,875.03,20088.38,866.69,2099603.04,26190.72,6001.27,102358.25
26.823,110528.58,10684512.74,875.03,16258.77,666.68,2326557.34,12538.85,3475.42,115134.67
27.154,93952.41,12084547.15,525.01,12505.19,266.67,2718146.41,12071.78,3325.39,107396.83
27.485,105761.96,13224462.80,1150.04,17385.02,2166.83,2849675.06,13239.48,2700.26,88234.94
27.816,92778.66,11719890.89,300.00,18711.61,1766.77,2717599.80,15308.22,1150.05,68898.85
28.147,72269.18,7542790.27,175.00,8977.67,500.01,1496612.79,13506.40,1450.07,85593.15
28.478,133812.22,8934171.03,1050.04,40955.59,500.01,1947681.81,14874.43,1500.08,63296.77
28.809,107977.25,7651569.44,325.00,17635.32,300.00,1173056.80,14307.18,1475.08,93343.82
29.140,119226.44,6178137.64,250.00,17685.37,466.67,1454064.23,38886.34,825.02,98479.80
29.471,94489.02,7342696.00,50.00,19963.22,1400.07,1324866.31,11638.09,550.01,95559.11
29.802,62359.35,5135627.72,300.00,18811.74,666.68,1750504.73,11171.05,875.03,59429.40
30.133,74178.23,7829112.67,400.01,14657.13,366.67,1834562.67,12905.85,2725.26,63974.92
30.464,70025.53,6108318.89,200.00,8427.36,300.00,901413.63,181819.68,1250.06,36874.86
30.795,69021.01,4556260.52,500.01,14156.65,600.01,903627.43,9970.16,1775.11,48887.60
31.126,106768.87,4250264.16,350.00,14131.63,400.01,418872.57,5200.95,750.02,23870.91
31.457,35307.10,952765.13,300.00,5501.00,333.34,226596.41,5067.57,575.01,26300.38
31.788,41589.42,1708729.60,250.00,9903.25,400.01,262450.97,4167.28,650.01,19939.59
32.119,64735.79,792664.93,250.00,7701.97,233.34,202178.16,3767.16,525.01,40434.94
32.450,56804.58,3162794.60,125.00,8052.15,466.67,909223.20,20514.76,950.03,48686.88
32.781,98883.15,4978189.69,200.00,6351.34,700.02,1093864.48,13673.23,1050.04,77218.31
33.112,234065.52,5438900.12,175.00,8227.25,500.01,671778.14,6801.62,3025.32,52877.46
33.443,49345.61,3140265.43,1575.08,7927.08,466.67,995723.33,6401.44,1200.05,55136.40
33.774,62593.63,4008836.03,250.00,11704.55,600.01,1102758.88,12405.40,1425.07,86196.93
34.105,83592.95,6328426.18,100.00,7827.03,500.01,2228014.37,11938.33,1100.04,75986.40
34.436,79035.65,9184461.66,200.00,9377.92,900.03,1984910.72,11538.00,1175.05,117933.46
34.767,84397.32,9863566.89,200.00,9503.00,1100.04,2071187.68,14774.33,3400.41,106842.48
35.098,103849.00,11429596.09,400.01,17810.52,1300.06,2617467.25,21482.85,1825.12,146180.40
35.429,112341.64,11771920.05,575.01,27224.58,2100.15,2650307.87,25456.06,1825.12,209753.06
35.760,129206.46,14088680.52,325.00,22491.78,1200.05,3381924.82,22150.55,2850.29,247962.14
36.091,109085.00,14647147.20,225.00,18436.28,566.68,3013369.60,23586.18,2750.27,201631.73
36.422,130786.39,14761371.16,200.00,14582.05,900.03,2857797.20,19379.84,2450.21,232925.10
36.753,88118.08,12918987.79,150.00,12380.08,933.36,3247427.94,18912.55,3550.44,207773.03
37.084,107238.77,13508572.18,450.01,19963.22,2433.53,3139355.28,26825.23,2325.19,309528.18
37.415,88319.22,13334545.09,4075.55,22742.15,1833.45,2757378.97,34174.28,1600.09,341452.74
37.746,96132.47,13541383.64,475.01,23643.54,1800.11,2565343.29,32737.58,3375.40,381854.65
38.077,105459.89,11703069.01,175.00,23217.88,1833.45,2709494.07,34742.32,1900.13,373708.31
38.408,102171.18,13431724.26,325.00,15182.65,433.34,3240584.97,32403.48,1000.04,270943.83
38.739,76991.99,12982256.54,375.00,16458.98,633.35,2964826.63,22551.17,1200.05,235188.51
39.070,72838.54,13481128.43,250.00,14206.69,700.02,3282487.57,25522.85,1125.04,254022.30
39.401,77159.50,12641184.66,300.00,17510.17,1133.38,2933836.52,20114.19,1150.05,285384.31
39.732,93818.27,12177066.94,450.01,26022.45,933.36,3764994.09,28495.14,1975.14,392295.25
40.063,108111.53,15770761.81,875.03,26949.08,933.36,3405455.28,20614.91,1425.07,381803.28
40.394,130685.54,16097585.78,275.00,29002.89,1300.06,3833648.00,38953.19,1775.11,391497.71
40.725,124098.05,20330673.37,150.00,26122.63,2133.49,4459141.77,45639.66,1925.13,387999.76
41.056,131357.89,20522619.21,375.00,28501.93,2766.93,4305548.27,42730.67,1425.07,398007.46
41.386,123190.81,18993692.09,250.00,32510.04,2100.15,3803253.73,41426.82,2350.19,608288.73
41.718,232779.56,18936496.26,450.01,30180.19,2433.53,3647201.12,40189.95,5100.91,597162.12
42.049,207252.06,15106751.38,550.01,31157.18,1600.09,3178322.73,41660.84,6826.64,835279.22
42.380,187872.47,13989565.94,325.00,26473.24,1100.04,2870262.04,42964.70,2500.22,580202.06
42.711,115867.63,11407669.00,375.00,26648.55,1033.37,2323291.20,34307.94,2475.22,579732.78
43.042,161542.91,12716374.24,400.01,26924.03,933.36,2938270.12,51459.45,1625.09,945336.06
43.373,221921.02,16372636.82,400.01,26898.99,466.67,3527417.01,51392.54,2600.24,1439699.25
43.704,307710.72,14040032.61,475.01,55351.50,233.34,3839116.49,55307.17,2900.30,2663846.54
44.035,300843.63,22186950.50,425.01,47951.18,866.69,4719400.63,67124.46,3450.42,2882881.12
44.367,437082.99,15250668.05,1775.10,39777.44,466.67,3040302.93,68966.55,16910.05,3268007.30
44.698,675706.85,11018975.25,1375.06,22917.42,466.67,2333661.25,52764.21,10278.71,1588399.06
45.029,237754.71,8560934.05,725.02,33437.06,366.67,1756337.67,36981.28,8577.59,1531675.72
45.360,197457.95,7240861.62,1375.06,61525.37,233.34,1383224.51,31401.24,14782.68,1065434.20
45.691,206475.02,7044389.74,1100.04,40579.58,133.33,1677404.72,49686.51,23794.89,3207055.15
46.022,852741.62,10371001.27,1975.13,54799.48,166.67,2482837.82,92901.96,15658.61,2730586.58
46.353,554403.66,15143221.17,825.02,30180.19,433.34,3937556.08,76337.33,8702.66,1207414.09
46.684,135358.99,13866977.39,300.00,20614.09,266.67,3416628.46,49318.56,1825.12,837908.61
47.015,150936.12,14374951.36,250.00,41356.68,366.67,3767175.61,62336.10,2650.25,517940.73
47.346,122888.40,11492254.42,100.00,28076.14,566.68,3075846.94,57616.29,1875.12,571391.08
47.677,132063.89,15083382.63,50.00,32484.99,866.69,3834798.78,73422.06,2150.16,498951.04
48.008,127727.53,16563971.20,275.00,33687.62,1133.38,5278645.95,73623.10,3275.38,470903.38
48.339,136872.28,17608612.89,325.00,16258.77,1000.03,3112281.06,28829.15,1700.10,325980.48
48.670,77628.52,12021479.44,175.00,10803.87,1200.05,2227745.36,19212.95,800.02,192120.72
49.001,65907.42,12835718.00,300.00,9002.69,1500.08,2634738.34,15975.62,1100.04,346759.31
49.332,65237.90,12681544.03,200.00,10053.35,900.03,2708616.47,13706.59,2575.23,426861.83
49.663,65539.18,13097645.08,200.00,10428.61,1233.38,2790675.06,20448.00,1950.13,690629.26
49.994,95226.87,13200913.84,400.01,24319.61,666.68,2736605.53,22150.55,3050.33,821582.54
50.325,100963.24,12153405.48,325.00,24620.10,400.01,2560499.80,22284.08,6126.32,402280.26
50.656,91940.32,12658163.82,850.02,18135.91,1166.71,2472835.99,17544.13,2200.17,904631.07
50.986,196512.60,13298381.55,750.02,15457.92,933.36,2881460.22,21082.26,4700.78,506678.77
51.318,61790.39,9604717.92,275.00,12179.92,233.34,2105361.38,18144.88,4475.70,572224.96
51.649,84263.25,11018602.33,425.01,15708.18,433.34,2607945.63,28728.94,2250.18,492704.80
51.980,67782.19,13293072.17,300.00,13155.74,133.33,3018651.89,22250.70,2625.24,271810.82
52.311,54563.17,11652157.55,250.00,26448.19,66.67,3219579.76,19112.82,3850.52,302702.28
52.642,74881.63,15369569.09,475.01,14857.32,266.67,2874526.11,17911.26,4500.71,339453.65
52.973,99453.47,10170235.64,300.00,15457.92,300.00,3283845.39,13873.42,1950.13,426965.00
53.304,84263.25,12598491.95,300.00,14106.60,466.67,2701893.55,12638.94,2775.27,333073.98
53.635,93449.37,11391281.50,275.00,9377.92,466.67,2689689.64,10103.58,1325.06,216710.75
53.966,64233.69,10620945.03,775.02,7301.77,1233.38,2501980.00,11771.53,2425.21,307891.73
54.297,60451.76,8889966.87,375.00,9102.75,1000.03,2075935.98,17343.88,2200.17,661956.80
54.628,125744.66,11689236.72,1400.06,32535.09,1333.39,2900813.61,16342.70,1900.13,631510.76
54.959,91068.50,9272438.75,175.00,9928.27,666.68,2611398.24,14774.33,2350.19,637139.08
55.290,41890.23,9905466.89,350.00,9477.98,366.67,3503385.49,12638.94,29355.26,648664.52
55.621,96333.72,10455440.86,50.00,6676.48,200.00,2523784.17,12138.50,1675.10,403129.84
55.952,59849.41,9550340.84,275.00,12630.29,166.67,2668419.33,11504.64,1625.09,226772.59
56.283,28359.43,8757161.65,325.00,17585.26,200.00,3175425.07,14974.53,2325.19,307891.73
56.614,59916.34,12779766.95,450.01,19737.92,333.34,2590256.57,17711.00,6476.47,188749.04
56.945,51051.15,12004489.85,225.00,15182.65,233.34,2746346.42,12638.94,2450.21,150931.80
57.276,27992.09,9766027.30,350.00,11554.43,366.67,2766093.03,12472.12,1425.07,117807.39
57.607,26990.30,9285649.17,625.01,10028.34,500.01,2483533.39,17177.02,2225.17,156923.97
57.938,60384.84,9638855.42,175.00,8802.57,500.01,2314858.39,13139.39,1500.08,138980.59
58.269,30229.65,8452508.52,100.00,7301.77,733.35,2698561.00,18779.03,1950.13,170485.51
58.600,33903.95,10264383.56,125.00,10028.34,866.69,2237266.72,14841.06,2275.18,186417.26
58.931,32667.95,9546350.21,150.00,9703.12,266.67,1743562.28,11171.05,1375.07,180513.52
59.262,28559.79,9101614.79,250.00,7201.72,166.67,2178436.51,13940.15,2450.21,264978.11
59.593,51285.26,13386128.42,925.03,10979.00,400.01,2344610.99,11004.25,2725.26,174789.59
59.924,59983.27,13661441.97,1100.04,9528.01,500.01,2513368.55,8302.42,1775.11,108228.40
60.255,36376.25,9481942.92,200.00,8327.30,666.68,2017263.07,12939.21,3025.32,114277.50
60.586,86609.56,9020041.87,100.00,7601.92,733.35,2888199.54,8702.66,2325.19,205539.51
60.917,65003.58,11080370.04,175.00,11679.53,933.36,2461116.46,9202.97,12905.85,192678.52
61.248,80208.35,13984859.69,650.01,14732.20,400.01,2431334.95,20548.14,2300.19,126030.51
61.579,63095.67,12344316.94,300.00,12430.13,466.67,2914151.89,11304.48,1325.06,138172.43
61.910,125912.69,13262509.67,200.00,10203.45,500.01,2212912.55,8802.72,1425.07,164133.23
62.241,64836.21,11920842.97,175.00,9578.04,866.69,3180802.41,10070.23,1500.08,135924.98
62.572,61522.66,13723432.60,175.00,8202.23,400.01,3102821.68,8435.83,2000.14,102282.68
62.903,51519.37,13165521.13,250.00,7526.88,333.34,2989114.65,8902.78,1475.08,106968.47
63.234,60184.05,11852232.56,75.00,8102.18,633.35,2812545.38,9736.66,1275.06,146660.49
63.565,52455.86,11930084.64,200.00,11604.47,500.01,2432895.63,9536.53,2500.22,144310.61
63.896,65405.27,12889236.75,225.00,9177.79,433.34,2519909.43,10870.81,1400.07,139384.71
64.228,58444.03,11987930.48,375.00,7401.82,500.01,2467686.25,9303.04,1075.04,134359.56
64.559,55198.76,11307491.92,125.00,6376.35,333.34,2681538.34,16209.22,900.03,134763.53
64.890,57641.01,11211408.58,150.00,6376.35,1066.71,2871239.13,27893.95,1425.07,222375.91
65.221,88386.27,13750113.85,300.00,6476.39,666.68,2172852.00,22384.24,1075.04,239512.90
65.552,35708.02,9627659.59,225.00,5300.93,533.34,2483765.16,17877.88,1850.12,278085.63
65.883,78566.60,12070394.02,500.01,6176.27,266.67,3338362.05,17444.01,2375.20,179373.61
66.214,34070.99,11621316.93,175.00,8102.18,466.67,3435617.52,22951.81,1775.11,276835.50
66.545,45366.73,12510332.57,125.00,7701.97,666.68,3589678.99,16442.82,2450.21,188926.47
66.876,33703.51,12893365.91,100.00,5501.00,600.01,3671352.43,12538.85,425.01,179778.90
67.207,43026.70,14381827.40,125.00,4950.81,833.36,2947626.11,11738.17,625.01,165271.84
67.538,40920.96,12253381.52,175.00,5976.19,1000.03,2785102.93,10337.08,700.02,169017.40
67.869,38314.27,12681437.78,175.00,6576.44,1666.76,3940988.11,18011.38,1675.10,159073.70
68.200,69188.43,15464714.93,150.00,7026.64,1400.07,3949217.80,15808.77,1625.09,134839.29
68.531,64635.37,13171001.34,200.00,6476.39,1333.39,2496544.59,9436.46,1225.05,116546.61
68.862,56838.03,12600806.53,150.00,9628.08,1633.42,3112802.67,13739.96,1450.07,116370.11
69.193,57406.81,12472280.49,250.00,8652.48,1033.37,3339595.65,13172.76,1175.05,118664.79
69.524,54094.85,12687688.83,200.00,5526.01,1066.71,3255231.32,9770.02,375.00,91229.56
69.855,34805.96,8398076.75,25.00,5175.89,866.69,2013450.31,6067.96,750.02,136505.75
70.186,52255.18,11376883.59,75.00,5701.08,766.69,2708848.50,9569.88,475.01,99310.81
70.517,33002.00,10454136.69,150.00,3900.51,500.01,3241731.58,11938.33,350.00,132718.59
70.848,29661.88,12602472.16,75.00,4200.59,600.01,3256075.85,13539.76,275.00,155406.69
71.179,21915.58,15120524.30,75.00,3700.45,433.34,3723062.32,15208.11,175.00,161603.23
71.510,19712.61,11391475.25,50.00,3700.45,566.68,3276911.27,23886.68,725.02,221944.00
71.841,34070.99,15277400.34,150.00,4900.80,566.68,4644508.44,25823.39,550.01,187633.81
72.172,48643.38,12502777.36,150.00,4450.66,866.69,3161974.81,11704.81,275.00,114958.17
72.503,25888.41,9864910.64,125.00,3775.47,533.34,2101577.65,6501.48,175.00,103290.25
72.834,22115.87,8214648.10,75.00,2600.22,433.34,2015818.27,7301.87,175.00,230534.97
73.165,21014.33,9362916.88,75.00,3000.30,500.01,2491899.80,10470.51,300.00,153965.48
73.496,14740.39,9100249.16,75.00,2850.27,366.67,3490527.42,14807.69,625.01,104398.65
73.827,16942.65,12219982.56,75.00,3000.30,666.68,5584144.40,22651.33,475.01,121010.28
74.158,30663.84,14865355.54,75.00,3125.32,1100.04,4610086.04,14440.65,250.00,122044.44
74.489,51586.26,11898405.47,75.00,3375.38,333.34,3160219.60,11671.45,150.00,132188.48
74.820,62158.53,9368335.63,125.00,4125.57,1400.07,2598838.08,13840.05,1875.12,857259.10
75.151,300095.94,8610834.05,450.01,8702.51,1333.39,3897263.89,24855.00,4575.74,2164261.18
75.482,385225.63,13738428.43,650.01,10303.52,466.67,4993316.78,27760.36,4625.75,1738731.48
75.813,265943.46,11235358.58,275.00,9327.89,200.00,3127300.07,29597.38,5826.19,1679180.90
76.144,315567.36,7602220.48,5000.83,24069.21,300.00,2275505.78,17444.01,8177.35,1954090.86
76.475,319173.87,7751224.13,825.02,13355.92,266.67,2289767.24,14140.35,3600.46,1903565.28
76.806,255908.92,5813963.15,400.01,33512.23,166.67,1846936.37,10970.89,3250.37,1742389.30
77.137,291907.46,5443161.58,1950.13,8552.43,300.00,1375876.46,15241.48,10278.71,3382953.20
77.468,602493.70,2315266.98,2525.21,10728.82,400.01,270281.26,8102.30,5851.20,2542807.67
77.799,455162.28,593742.85,175.00,9252.84,333.34,86955.93,9069.55,1075.04,2073780.71
78.130,402013.36,196800.57,175.00,7026.64,66.67,31567.13,5067.57,525.01,845635.86
78.461,138789.33,89865.17,250.00,4775.76,66.67,19012.27,3100.34,750.02,457198.11
78.792,63430.37,84031.89,400.01,3125.32,133.33,16208.91,2433.54,925.03,423458.02
79.123,56035.10,39551.45,175.00,3400.38,133.33,9403.00,866.69,850.03,211377.89
79.454,48275.55,27558.32,150.00,3975.52,100.00,11637.93,900.03,5951.24,131557.40
79.785,26856.73,38281.53,175.00,3425.39,66.67,3967.20,1366.73,200.00,132668.11
80.116,43695.25,22249.63,225.00,3950.52,166.67,4100.57,1566.75,725.02,215440.80
80.447,61455.72,34940.16,275.00,4375.64,66.67,2800.27,2966.98,1200.05,607348.06
80.778,241004.66,28760.55,525.01,5375.96,66.67,4233.94,2566.90,900.03,550116.42
81.109,160161.95,48209.75,275.00,4700.73,233.34,104402.04,2066.82,1225.05,548138.98
81.440,160195.63,54698.36,250.00,5025.84,100.00,25321.75,6301.39,1750.11,787161.10
81.770,169393.27,48677.91,1850.11,6176.27,133.33,5234.26,3933.88,7577.02,814102.80
82.102,205664.31,64905.10,150.00,7001.63,200.00,4634.06,3400.41,1500.08,573189.32
82.433,143633.42,40052.76,200.00,6251.30,200.00,4200.60,1966.80,675.02,433955.92
82.764,111334.36,80378.87,125.00,5400.97,33.33,3867.17,1966.80,10503.88,218387.16
83.095,41622.84,10303.50,75.00,2450.20,0.00,700.02,366.67,125.00,32964.85
83.426,5434.29,4934.14,0.00,1775.10,0.00,100.00,66.67,50.00,7402.01
83.758,3600.42,5234.24,50.00,2375.19,0.00,100.00,166.67,25.00,3025.34
84.089,500.01,4700.73,75.00,1825.11,0.00,166.67,33.33,100.00,825.02
84.420,133.33,4834.10,100.00,1800.11,0.00,33.33,0.00,50.00,875.03
84.751,66.67,5400.96,25.00,1475.07,33.33,66.67,0.00,25.00,325.00
85.082,66.67,4667.38,75.00,2050.14,33.33,66.67,66.67,0.00,1000.04
85.413,100.00,3733.79,50.00,1575.08,66.67,33.33,33.33,100.00,300.00
85.744,433.34,4300.61,175.00,1625.09,33.33,33.33,0.00,25.00,775.02
86.075,66.67,7401.80,75.00,2150.15,100.00,33.33,0.00,75.00,125.00
86.406,33.33,4800.76,100.00,1725.10,33.33,0.00,33.33,0.00,300.00
86.737,0.00,4233.92,75.00,1425.07,133.33,166.67,33.33,25.00,50.00
87.068,0.00,4800.76,75.00,2075.14,33.33,166.67,33.33,0.00,325.00
87.399,66.67,4700.73,125.00,1775.10,66.67,0.00,0.00,0.00,300.00
87.730,33.33,4400.64,150.00,1600.09,33.33,66.67,33.33,75.00,175.00
88.061,33.33,4767.41,25.00,1425.07,33.33,66.67,0.00,0.00,75.00
88.392,0.00,3567.09,75.00,1900.12,66.67,0.00,0.00,50.00,175.00
88.723,0.00,3800.48,25.00,1975.13,66.67,33.33,33.33,0.00,100.00
89.054,66.67,4000.53,0.00,1975.13,33.33,0.00,0.00,0.00,175.00
89.385,33.33,4567.35,100.00,1950.13,66.67,0.00,33.33,25.00,525.01
89.716,0.00,4367.29,100.00,1750.10,33.33,66.67,66.67,25.00,150.00
90.047,0.00,4700.73,25.00,1875.12,100.00,0.00,0.00,0.00,50.00
90.378,33.33,4200.58,50.00,1750.10,66.67,33.33,66.67,25.00,150.00
90.705,33.33,3967.19,75.00,1725.10,33.33,233.34,33.33,25.00,100.00
