D:\DATA\SANDY\20140620\158.b\015.D
Intensity Vs Time,CPS
Time [Sec],Mg24,Ca44,V51,Mn55,Rb85,Sr88,Ba138,Ce140,Pb208
0.341,66.67,3400.38,25.00,1975.13,133.33,0.00,33.33,25.00,75.00
0.672,33.33,4967.48,50.00,1350.06,66.67,0.00,33.33,0.00,25.00
1.002,0.00,4333.95,25.00,1525.08,100.00,33.33,0.00,25.00,0.00
1.334,0.00,4300.61,25.00,1525.08,66.67,0.00,66.67,100.00,0.00
1.665,66.67,4634.04,0.00,1375.06,100.00,66.67,0.00,50.00,100.00
1.996,133.33,4300.61,50.00,1650.09,66.67,0.00,0.00,0.00,25.00
2.327,166.67,4167.24,25.00,1650.09,33.33,0.00,66.67,0.00,50.00
2.658,33.33,3667.11,50.00,1425.07,33.33,0.00,66.67,0.00,25.00
2.989,33.33,4100.55,50.00,1475.07,0.00,33.33,0.00,75.00,50.00
3.320,0.00,3633.77,75.00,1700.10,33.33,0.00,66.67,75.00,50.00
3.651,133.33,4867.45,75.00,1475.07,66.67,100.00,0.00,0.00,25.00
3.982,33.33,3900.50,250.00,1900.12,33.33,33.33,0.00,50.00,100.00
4.313,33.33,4233.92,50.00,1625.09,0.00,33.33,0.00,25.00,100.00
4.644,66.67,4634.04,75.00,1550.08,33.33,33.33,0.00,50.00,0.00
4.975,0.00,4100.55,25.00,1450.07,33.33,33.33,0.00,50.00,75.00
5.306,66.67,5000.82,75.00,1500.07,66.67,33.33,100.00,25.00,50.00
5.637,66.67,3867.16,0.00,1300.06,33.33,33.33,33.33,75.00,25.00
5.968,100.00,4033.87,50.00,1300.06,33.33,33.33,0.00,25.00,25.00
6.299,0.00,4067.21,100.00,1475.07,66.67,33.33,33.33,50.00,25.00
6.630,66.67,3467.06,25.00,1550.08,33.33,0.00,33.33,25.00,25.00
6.961,0.00,4000.53,25.00,1625.09,66.67,66.67,33.33,25.00,50.00
7.292,66.67,4233.92,0.00,1150.04,0.00,33.33,0.00,0.00,25.00
7.623,33.33,4233.92,75.00,1375.06,33.33,0.00,100.00,50.00,50.00
7.954,33.33,4033.87,100.00,1650.09,66.67,0.00,0.00,25.00,25.00
8.285,0.00,4067.21,100.00,1175.05,66.67,33.33,33.33,0.00,100.00
8.616,33.33,4367.29,125.00,1425.07,0.00,33.33,0.00,0.00,25.00
8.947,33.33,4500.67,50.00,1275.05,33.33,33.33,33.33,25.00,50.00
9.279,100.00,4367.29,0.00,1575.08,133.33,0.00,66.67,25.00,50.00
9.610,33.33,4767.41,125.00,1200.05,0.00,0.00,0.00,25.00,75.00
9.941,0.00,3633.77,75.00,1450.07,66.67,0.00,33.33,0.00,50.00
10.272,0.00,4367.29,75.00,1600.09,66.67,0.00,33.33,50.00,100.00
10.602,33.33,4367.29,25.00,1500.07,66.67,33.33,33.33,50.00,75.00
10.934,33.33,4067.21,25.00,1550.08,66.67,33.33,100.00,200.00,1550.09
11.265,22249.40,49681.15,250.00,8277.27,2833.61,4167.26,2866.96,3325.39,15583.91
11.596,42993.27,60955.45,250.00,5976.19,1566.75,1800.11,2000.14,1000.04,10754.25
11.927,29962.46,23918.83,150.00,4925.81,800.02,1566.75,1366.73,825.02,9803.53
12.258,19512.36,38582.30,825.02,5526.01,766.69,2000.14,3200.36,1750.11,36624.18
12.589,25788.24,56772.61,475.01,5075.86,900.03,2933.63,1700.10,1300.06,36348.45
12.920,31498.85,97646.32,350.00,8127.19,1633.42,4834.13,62369.57,6026.28,25674.18
13.251,45801.35,60152.26,350.00,5551.02,2933.63,3733.81,12138.50,2250.18,19438.87
13.582,89023.27,92648.49,450.01,5325.94,4600.72,4267.29,7635.38,1500.08,10879.34
13.913,59514.79,34171.75,175.00,4550.69,4967.50,1800.11,6067.96,2875.29,8827.86
14.244,34872.78,62662.38,350.00,3950.52,1733.44,1533.41,4067.25,1200.05,7051.83
14.575,26956.91,31165.29,175.00,3725.46,2933.63,3066.99,6801.62,1100.04,9853.56
14.906,56771.13,33871.07,300.00,6326.33,5267.61,3700.46,3000.32,5050.90,8702.78
15.237,66007.84,46604.75,225.00,5200.90,4567.37,3633.78,4233.96,1975.14,5901.28
15.568,76623.50,28994.33,300.00,4075.55,2400.20,1800.11,2366.86,1700.10,14332.54
15.899,49111.52,56337.66,325.00,4325.62,2366.86,3700.46,1733.44,1750.11,18437.48
16.230,52756.89,92715.55,550.01,6801.54,1800.11,5534.37,34842.56,5275.98,13156.35
16.561,28459.61,84467.65,150.00,3800.48,1933.46,2033.47,1900.13,550.01,22668.85
16.892,38247.44,38314.95,675.02,4175.58,2700.25,3066.99,2166.83,1150.05,19964.62
17.223,41923.66,62829.73,700.02,4725.74,2966.97,6901.62,4467.37,6976.71,22794.06
17.554,59548.25,81250.16,225.00,5951.18,2233.50,7802.07,2433.54,1550.08,17085.71
17.885,38481.36,181680.54,375.00,8377.33,1566.75,6934.97,3200.36,4025.57,27703.15
18.216,37612.55,54196.56,800.02,7026.64,1900.12,23719.09,3633.80,4650.76,33340.77
18.547,71599.41,128306.52,425.01,9277.86,1766.77,4500.69,4800.81,3600.46,20765.82
18.878,35273.69,49045.76,300.00,4800.76,1266.72,2933.63,4267.31,1700.10,15834.20
19.209,22549.83,38081.03,200.00,3150.33,1400.07,2366.86,2000.14,650.01,67014.49
19.540,27357.61,59951.47,200.00,3450.40,1300.06,2200.16,1800.11,1300.06,18712.85
19.871,22115.87,48945.44,625.01,3500.41,1166.71,1833.45,2400.20,750.02,11880.18
20.202,17776.92,35174.03,200.00,3400.38,733.35,1966.80,2533.56,975.03,14457.67
20.533,31699.26,126155.28,875.03,6176.27,966.70,4567.37,2133.49,1000.04,16359.82
20.864,28392.82,101404.18,175.00,4150.57,1133.38,2066.81,3000.32,1100.04,19488.94
21.195,25187.25,23184.36,125.00,3950.52,833.36,1366.73,2033.48,1350.06,14132.33
21.526,30830.83,45066.79,225.00,6026.20,1566.75,2466.87,2366.86,875.03,19388.79
21.857,44932.12,32501.42,200.00,5200.90,1200.05,2466.87,2366.86,800.02,14132.33
22.188,25020.31,34839.93,975.03,5250.92,1000.03,3733.81,1766.78,1375.07,17210.87
22.519,25487.74,40253.29,250.00,4200.59,766.69,5867.84,2466.88,975.03,17611.38
22.850,25487.74,27524.93,450.01,4275.61,966.70,2433.53,1833.45,975.03,14908.15
23.181,13872.91,47908.80,150.00,3675.45,366.67,2133.49,1300.06,825.02,16459.94
23.512,20547.03,49580.83,75.00,3975.52,400.01,3133.67,1800.11,1325.06,19288.65
23.843,39684.40,79038.53,175.00,3950.52,900.03,11004.11,9669.95,650.01,15208.49
24.174,31098.04,94426.05,100.00,4250.60,2266.84,3000.31,2166.83,1325.06,19088.37
24.505,60418.30,75688.19,275.00,3975.52,2133.49,4333.97,2133.49,1700.10,15358.66
24.836,64334.11,75922.68,100.00,3825.49,2300.18,1633.42,1666.76,725.02,17311.00
25.167,32333.91,25721.77,175.00,3350.37,3167.01,2433.53,1433.41,850.03,14607.83
25.498,36276.01,30129.87,100.00,5100.86,1900.12,2566.89,2133.49,2175.17,17361.06
25.829,75015.61,81049.09,450.01,6151.26,6001.22,5000.85,4400.68,4850.83,31361.07
26.160,110696.46,113791.49,250.00,11554.43,5634.41,5100.88,5701.14,3200.36,35220.48
26.491,91437.34,57910.23,275.00,6176.27,3100.33,3933.86,3633.80,2075.15,29306.50
26.822,154605.57,44097.27,200.00,5826.13,4700.75,3533.76,1900.13,1550.08,15809.17
27.153,35106.65,50784.79,125.00,3700.45,933.36,3667.12,1700.10,1450.07,20465.36
27.484,30864.23,42659.85,225.00,3825.49,1800.11,2433.53,1533.42,5025.89,15058.32
27.815,28726.77,80713.97,175.00,10303.52,2400.20,3800.49,3433.75,1900.13,17611.38
28.146,64769.27,52791.62,100.00,7126.69,1933.46,3100.33,2233.51,2475.22,17761.58
28.477,42959.85,59047.93,2425.19,5400.97,1233.38,2100.15,1666.76,1900.13,32639.07
28.809,24319.19,65172.92,575.01,6176.27,1300.06,5234.26,2000.14,1925.13,34368.31
29.140,38347.69,107210.52,200.00,24194.41,600.01,4800.78,3300.38,1300.06,43569.59
29.471,37445.47,85841.99,725.02,17985.73,766.69,3066.99,3567.11,1225.05,29531.99
29.802,38381.11,69358.07,100.00,6276.31,533.34,2566.89,1500.08,425.01,77042.32
30.133,21982.35,39651.71,175.00,4950.81,1266.72,2666.91,4934.19,1675.10,51196.06
30.464,72771.55,70496.62,175.00,5926.17,4167.25,7435.21,91962.57,1175.05,78701.76
30.795,238059.36,69056.69,275.00,7351.79,3567.10,3633.78,8135.66,1525.08,47332.12
31.126,64233.69,77329.75,400.01,6251.30,3200.35,3066.99,4300.65,1800.11,53555.10
31.457,66677.39,43696.12,300.00,5776.11,3500.42,2966.97,4200.62,1575.09,37852.54
31.788,43762.09,40253.29,225.00,4125.57,3633.78,2433.53,3267.04,850.03,42741.97
32.119,40920.96,22416.54,225.00,4275.61,2100.15,2033.47,2866.96,1550.08,30208.47
32.450,52689.99,40253.29,325.00,4550.69,666.68,3633.78,3233.70,1525.08,61588.97
32.781,42759.29,50182.80,400.01,6226.29,466.67,4700.75,2300.19,1225.05,29406.72
33.112,23818.41,26623.32,100.00,6776.52,1566.75,33705.19,3467.09,4450.70,34167.81
33.443,50382.29,68387.01,250.00,5576.03,2666.91,6734.87,2333.52,3500.43,30659.47
33.774,51619.71,46638.19,225.00,5476.00,1200.05,4967.50,3867.19,1725.10,74603.80
34.105,79102.65,268588.21,475.01,6176.27,1700.10,57478.61,3533.77,1650.10,54659.48
34.436,61589.59,114194.50,225.00,8427.36,1733.44,9569.78,2400.20,875.03,60986.25
34.767,44196.66,113757.91,300.00,7601.92,566.68,17810.77,2766.94,3000.32,81392.51
35.098,59314.01,87249.99,125.00,13706.23,666.68,18111.13,2200.17,1775.11,99764.10
35.429,93248.15,207373.23,575.01,12505.19,866.69,69999.28,3467.09,3725.49,159781.90
35.760,203502.54,96673.47,575.01,10103.39,466.67,31333.30,3300.38,1425.07,365232.97
36.091,115531.77,206325.79,450.01,9102.75,933.36,50954.65,3833.85,2800.28,363897.93
36.422,139731.11,112851.17,275.00,7676.96,1066.71,31299.89,7235.17,1575.09,510699.77
36.753,153797.55,78770.47,325.00,8002.12,266.67,16575.99,11538.00,1450.07,118891.75
37.084,58611.33,55467.80,450.01,9477.98,133.33,37380.71,14173.72,3000.32,261715.97
37.415,272557.62,1373324.77,1625.09,35892.71,633.35,1533767.22,41694.27,11654.77,3868019.62
37.746,865807.96,5962564.72,1675.09,44615.96,666.68,2545749.80,31234.21,15108.02,1710604.53
38.077,290243.11,11189481.50,275.00,99125.01,666.68,2997419.08,29664.19,12855.81,902366.13
38.408,268927.98,8050297.58,1050.04,23468.26,500.01,2530039.38,27760.36,5751.16,958296.51
38.739,261739.05,13247725.30,1550.08,23292.99,1000.03,2713426.88,24287.35,4100.59,986266.43
39.070,227163.29,9331975.21,350.00,17309.94,666.68,2515521.15,61365.23,3725.49,734566.18
39.401,286269.77,11074341.91,400.01,15883.37,466.67,2125985.72,17744.38,2825.28,596927.21
39.732,146426.24,9144485.62,225.00,14882.35,266.67,1923836.76,14507.38,1775.11,495840.49
40.063,97742.55,8037272.58,175.00,15082.55,433.34,1742163.06,14941.16,1925.13,507664.46
40.394,93449.37,9207231.46,225.00,15482.95,266.67,2158408.38,13606.50,2100.16,625518.47
40.725,108077.96,7511913.71,300.00,22266.44,300.00,2206421.40,20982.11,2500.22,619215.00
41.056,136132.42,8952600.20,225.00,20313.68,300.00,1860399.00,14574.12,3000.32,806653.58
41.386,137444.01,8263262.68,250.00,13656.19,500.01,1539235.84,13072.66,2975.31,727264.66
41.718,145719.57,9937680.43,300.00,12955.57,1700.10,1675728.03,11037.61,3175.35,459214.22
42.049,132164.74,10697062.74,150.00,13956.46,2733.59,1949942.10,14807.69,1525.08,384502.62
42.380,150700.49,11795530.47,400.01,18060.82,3000.30,1753431.55,11171.05,2025.14,275764.09
42.711,126047.11,8952329.37,275.00,15057.52,2566.89,1898207.46,15541.81,1675.10,336558.14
43.042,89827.90,6883577.24,125.00,9377.92,1633.42,1685274.39,14240.45,2675.25,330512.73
43.373,68217.44,7287011.62,450.01,13030.63,900.03,1845222.57,13573.13,2675.25,567560.75
43.704,106231.84,10673590.86,600.01,12780.42,1066.71,2004351.09,12405.40,3050.33,547124.38
44.035,98581.21,10814732.53,250.00,11304.24,800.02,1901540.02,12438.76,1525.08,869393.28
44.366,287865.73,8967719.99,1375.06,13230.81,266.67,2018695.36,13606.50,3175.35,1668515.86
44.697,266418.25,9120302.29,1175.05,10153.42,300.00,1380769.69,11871.61,1925.13,936018.18
45.028,141244.83,5283287.62,450.01,9427.95,166.67,1190340.39,12739.03,5376.01,2429518.80
45.359,258586.42,5178831.37,975.03,31232.34,466.67,943799.70,27092.41,27276.13,4967655.97
45.690,783820.26,4434690.20,2075.14,16308.82,300.00,863984.92,11771.53,16559.63,2461962.16
46.021,409062.02,6696007.44,1125.04,17885.61,533.34,1791215.14,20881.96,3350.39,1472916.83
46.352,129744.29,9410075.21,525.01,17685.37,200.00,2386236.25,26524.67,3000.32,956276.00
46.683,93382.29,7851937.68,175.00,9703.12,266.67,1734748.74,16643.05,3050.33,778112.62
47.014,101667.86,8199045.50,450.01,15983.48,266.67,1937936.76,17377.26,3975.56,806255.98
47.345,202691.96,8323412.69,450.01,24945.63,200.00,1736748.22,16175.85,10879.16,1262148.95
47.676,219655.54,7863436.11,350.00,13556.10,266.67,1791782.33,13372.94,5726.15,1095321.41
48.007,318561.37,4466567.29,1375.06,30606.06,333.34,1146367.73,12238.59,3200.36,850850.21
48.339,276256.03,5733690.23,1250.05,14481.96,400.01,1857248.61,21482.85,5125.92,1769780.31
48.670,251165.11,10261722.10,975.03,17985.73,233.34,2900250.59,21616.39,7927.21,1558380.21
49.001,200598.13,7341501.73,1775.10,28577.08,333.34,1789087.28,24521.09,14757.65,1896263.91
49.332,387515.37,3709017.79,1225.05,29278.42,266.67,542905.64,13339.58,6001.27,2150243.21
49.663,629231.85,771738.62,875.03,38699.64,900.03,128390.51,80091.20,12580.56,3336958.28
49.994,435437.35,368518.66,1350.06,11254.20,1033.37,57779.78,9970.16,1925.13,940916.23
50.325,205157.61,148994.16,500.01,18786.71,1166.71,30464.81,4267.31,5876.21,633657.14
50.656,304310.78,151821.96,600.01,15783.26,1200.05,19980.21,7135.12,10478.86,331716.46
50.986,313696.33,93520.47,475.01,15257.72,366.67,7735.36,3233.70,6651.56,58249.32
51.318,26055.36,38114.45,375.00,6576.44,233.34,5667.76,1000.04,5726.15,49891.23
51.649,35340.51,21582.00,200.00,4325.62,166.67,1333.39,366.67,225.00,12555.79
51.980,4133.89,16475.60,1425.07,5701.08,466.67,1766.77,1400.07,3350.39,77746.31
52.311,93013.40,27190.99,900.03,9077.73,600.01,7601.96,2966.98,3750.49,93192.79
52.642,70427.36,57843.31,650.01,20939.54,1366.73,7401.86,6968.37,4850.83,185885.07
52.973,62359.35,53560.98,1350.06,20914.51,1666.76,21148.51,2833.62,4600.74,41688.72
53.304,24419.35,33470.19,275.00,6376.35,700.02,1300.06,533.34,1625.09,18011.91
53.635,10803.79,19112.02,175.00,3850.49,500.01,1566.75,766.69,875.03,21842.50
53.966,9402.87,32501.42,300.00,4325.62,500.01,4200.60,966.70,3925.54,30083.19
54.297,28960.54,35441.32,950.03,13606.14,800.02,18444.88,4900.84,4700.78,49263.95
54.628,22249.40,45702.02,350.00,12280.00,933.36,12872.29,2833.62,4725.78,44999.23
54.959,25220.64,37546.37,525.01,8927.64,400.01,4667.41,5634.45,1750.11,27577.90
55.290,8202.18,11938.02,250.00,5951.18,166.67,1500.08,333.34,1375.07,11179.59
55.621,94455.48,7034.96,200.00,3175.33,200.00,400.01,233.34,425.01,7627.14
55.952,23451.18,7701.95,200.00,7426.83,666.68,2866.95,1500.08,1750.11,12280.54
56.283,15474.44,31766.53,1125.04,7902.07,733.35,2066.81,700.02,14882.78,15308.60
56.614,23951.95,15040.78,250.00,7551.89,633.35,5834.49,1966.80,1875.12,16359.82
56.945,34939.59,36410.28,475.01,10303.52,1333.39,2633.57,733.35,1100.04,9928.62
57.276,19412.23,13305.83,225.00,4150.57,366.67,4033.89,333.34,300.00,5801.24
57.607,5067.50,7768.65,125.00,3275.36,400.01,766.69,266.67,10528.90,15083.35
57.938,16942.65,13772.91,300.00,12179.92,500.01,3967.20,2200.17,8277.41,26851.45
58.269,56503.48,28326.40,750.02,27249.62,433.34,4667.41,1433.41,2825.28,29857.70
58.600,22282.78,17309.86,275.00,7001.63,1300.06,1633.42,1400.07,1075.04,23294.91
58.931,11537.65,11938.02,125.00,3450.40,366.67,733.35,866.69,625.01,7377.00
59.262,6034.52,7635.25,100.00,2675.24,333.34,500.01,500.01,175.00,4325.69
59.593,3533.74,6834.87,125.00,2475.20,100.00,266.67,66.67,275.00,19163.48
59.924,9836.47,45300.81,100.00,6151.26,1500.08,6034.57,2433.54,6151.33,119648.31
60.255,59447.86,46705.06,725.02,9903.25,2733.59,4834.13,4767.46,7276.86,64075.39
60.586,39016.03,28994.33,200.00,7902.07,1433.40,3100.33,1500.08,1275.06,26275.33
60.917,18377.63,18344.41,125.00,18110.88,633.35,1466.74,700.02,550.01,12630.85
61.248,12371.63,10370.21,175.00,6326.33,400.01,633.35,400.01,225.00,7552.09
61.579,4634.03,7501.85,150.00,2475.20,66.67,500.01,166.67,600.01,10529.07
61.910,10970.57,19245.52,175.00,9127.76,1000.03,3367.05,1733.44,1450.07,23044.48
62.241,31064.63,34973.57,450.01,8052.15,766.69,21549.08,1066.71,2775.27,24497.02
62.572,20446.90,28927.53,275.00,14932.40,1133.38,11237.62,2900.29,3750.49,27753.25
62.903,35540.97,29328.30,250.00,12204.94,933.36,3567.10,2466.88,3075.33,25348.57
63.234,25287.42,11704.51,300.00,7676.96,200.00,1000.03,1133.38,800.02,5776.23
63.565,4433.97,12705.31,150.00,2950.29,200.00,400.01,400.01,150.00,3475.44
63.896,2133.48,8335.62,100.00,3475.40,366.67,700.02,466.67,1975.14,16059.47
64.227,27257.44,22316.39,450.01,7751.99,300.00,3000.31,1400.07,30407.46,20540.48
64.558,24419.35,26089.06,150.00,11554.43,233.34,2500.21,566.68,1925.13,10979.43
64.889,45667.62,15708.12,125.00,2575.22,200.00,533.34,300.00,825.02,13106.30
65.220,5967.82,9102.73,75.00,3450.40,300.00,1933.46,500.01,350.00,133930.37
65.551,30997.83,17610.21,275.00,3200.34,466.67,3500.42,3067.00,750.02,623111.83
65.882,66844.77,66679.43,2075.14,4875.79,200.00,9569.78,6968.37,1025.04,606930.09
66.213,92778.66,61290.13,575.01,6151.26,333.34,13506.19,8535.89,2250.18,604657.29
66.544,171179.51,62260.73,875.03,10478.64,466.67,5767.80,47111.11,2450.21,462290.78
66.875,135695.25,75118.70,6026.20,5450.99,200.00,2766.93,12238.59,725.02,375712.31
67.206,83794.04,49112.64,250.00,6751.51,200.00,4667.41,4500.71,800.02,537372.33
67.537,132231.99,32468.01,300.00,3225.35,133.33,1866.78,4600.74,925.03,465548.99
67.869,124434.09,70931.98,350.00,5701.08,133.33,2666.91,3767.16,1775.11,482317.64
68.200,385396.53,60721.18,850.02,4600.70,166.67,5801.14,15208.11,925.03,919477.46
68.531,1309307.84,52624.37,175.00,5776.11,333.34,3267.03,3733.82,2125.16,583644.64
68.862,178257.90,63833.91,200.00,6176.27,366.67,2766.93,2433.54,725.02,184567.33
69.193,42224.48,23050.82,175.00,3675.45,200.00,2633.57,1700.10,3500.43,194656.36
69.524,32601.14,36310.03,100.00,3250.35,266.67,2700.25,2633.58,1700.10,182084.22
69.855,58410.57,28927.53,450.01,4975.82,100.00,4300.63,9169.62,4950.86,517577.31
70.186,225336.76,62160.32,800.02,5726.09,133.33,5367.64,4100.59,1000.04,571703.72
70.517,111703.68,40988.59,500.01,8327.30,100.00,3000.31,1733.44,1200.05,390031.60
70.848,42759.29,33971.30,325.00,5000.83,233.34,2466.87,900.03,1300.06,159554.25
71.179,19779.36,36243.21,450.01,2600.22,66.67,1200.05,2400.20,625.01,171118.40
71.510,98547.66,26756.89,175.00,4275.61,33.33,1300.06,6801.62,2200.17,1641335.00
71.841,179405.72,25621.60,200.00,3625.44,33.33,1266.72,1733.44,400.01,281997.74
72.172,42859.56,16942.78,125.00,3125.32,133.33,1733.44,3533.77,725.02,293606.38
72.503,50917.38,38181.28,250.00,3025.30,100.00,1466.74,2500.22,850.03,673502.65
72.834,41154.93,28426.59,50.00,2950.29,66.67,1900.12,733.35,350.00,207036.97
73.165,59581.72,33403.37,300.00,4250.60,66.67,2433.53,5100.91,1325.06,286022.49
73.496,39149.70,38949.89,250.00,12079.84,100.00,1700.10,2433.54,800.02,324034.82
73.827,58142.89,30831.28,500.01,4275.61,133.33,2533.55,3100.34,3950.55,664107.78
74.158,73742.82,40587.51,10653.75,4225.59,100.00,1600.09,3067.00,35419.04,845906.07
74.489,103815.43,52122.64,125.00,6001.20,533.34,1900.12,4400.68,975.03,557065.49
74.820,113080.36,25988.89,325.00,4250.60,100.00,1333.39,1766.78,725.02,623765.88
75.151,165012.76,18878.40,175.00,3175.33,66.67,7535.26,2366.86,275.00,489129.31
75.482,113046.76,14573.66,25.00,2900.28,66.67,1300.06,1566.75,500.01,202367.53
75.813,124299.66,14139.91,150.00,3250.35,166.67,3066.99,9102.91,1275.06,2125714.70
76.144,473228.07,158489.59,700.02,12029.80,700.02,30732.03,43733.70,5326.00,2285079.35
76.475,562316.16,532717.79,825.02,17334.97,366.67,137976.58,96324.59,7802.14,1566406.97
76.806,347169.90,727277.88,1625.09,15958.45,433.34,214754.25,37582.85,5401.02,2029677.39
77.137,398729.57,1370082.32,26272.82,19287.34,666.68,159862.86,14674.22,2425.21,1231515.36
77.468,252113.74,419800.14,350.00,7952.10,300.00,40622.61,3967.22,675.02,296160.77
77.799,65740.03,151889.31,175.00,3075.31,66.67,9036.11,700.02,325.00,91707.75
78.130,33870.54,32100.56,200.00,2475.20,133.33,2933.63,300.00,150.00,31962.47
78.461,4934.12,29595.48,150.00,2075.14,100.00,2000.14,166.67,125.00,14282.49
78.792,2666.90,7635.25,25.00,1625.09,100.00,500.01,100.00,25.00,5776.23
79.123,1533.41,6634.78,75.00,1475.07,33.33,333.34,100.00,0.00,3100.35
79.454,1233.38,6834.87,25.00,1600.09,33.33,166.67,66.67,150.00,1925.14
79.785,1400.06,5834.45,50.00,1600.09,166.67,33.33,0.00,75.00,1600.09
80.116,966.70,6434.70,50.00,1625.09,100.00,33.33,100.00,75.00,1625.10
80.447,666.68,5034.17,50.00,1925.12,133.33,33.33,100.00,75.00,1275.06
80.778,1200.05,5334.27,50.00,1325.06,266.67,33.33,66.67,100.00,1125.05
81.109,800.02,6167.92,75.00,1575.08,66.67,200.00,66.67,100.00,1250.06
81.440,933.36,6001.19,75.00,1550.08,100.00,133.33,100.00,25.00,1150.05
81.770,1266.72,6101.23,100.00,1725.10,33.33,166.67,100.00,75.00,1175.05
82.102,1900.12,7168.36,25.00,1775.10,333.34,0.00,133.33,250.00,900.03
82.433,900.03,5601.03,50.00,1575.08,100.00,33.33,100.00,0.00,550.01
82.764,300.00,6034.53,150.00,1275.05,133.33,33.33,33.33,125.00,300.00
83.095,400.01,6734.83,25.00,1600.09,33.33,66.67,33.33,25.00,150.00
83.426,233.34,4600.70,100.00,1775.10,33.33,66.67,0.00,25.00,75.00
83.757,33.33,4400.64,50.00,1325.06,100.00,0.00,0.00,25.00,50.00
84.088,66.67,4333.95,150.00,1725.10,0.00,66.67,33.33,25.00,50.00
84.419,100.00,4233.92,25.00,1525.08,66.67,33.33,33.33,50.00,50.00
84.750,66.67,4033.87,100.00,1325.06,0.00,0.00,66.67,50.00,100.00
85.081,100.00,4634.04,100.00,1850.11,66.67,66.67,100.00,50.00,50.00
85.412,100.00,4867.45,175.00,1500.07,33.33,66.67,0.00,25.00,50.00
85.743,66.67,3833.82,75.00,1875.12,33.33,66.67,66.67,0.00,25.00
86.074,33.33,4367.29,50.00,1450.07,66.67,0.00,33.33,25.00,50.00
86.405,33.33,4233.92,50.00,1400.07,33.33,33.33,0.00,0.00,75.00
86.736,0.00,4467.32,75.00,1750.10,0.00,33.33,0.00,75.00,50.00
87.067,100.00,5234.24,75.00,1825.11,66.67,33.33,33.33,50.00,25.00
87.399,66.67,4200.58,25.00,1200.05,0.00,100.00,33.33,25.00,125.00
87.730,66.67,4900.79,25.00,1425.07,33.33,0.00,66.67,0.00,50.00
88.061,33.33,4600.70,0.00,1525.08,33.33,66.67,33.33,25.00,75.00
88.392,0.00,4133.90,25.00,1575.08,33.33,33.33,0.00,0.00,25.00
88.723,0.00,4300.61,25.00,1350.06,66.67,66.67,0.00,0.00,25.00
89.054,100.00,4400.64,50.00,1725.10,33.33,0.00,66.67,25.00,75.00
89.385,33.33,4333.95,25.00,1475.07,66.67,66.67,33.33,25.00,100.00
89.716,66.67,4000.53,75.00,1425.07,66.67,0.00,33.33,75.00,25.00
90.047,33.33,4500.67,0.00,1400.07,66.67,33.33,0.00,25.00,0.00
90.378,33.33,3933.84,25.00,1350.06,0.00,33.33,0.00,25.00,25.00
90.705,33.33,4167.24,125.00,1600.09,0.00,0.00,66.67,25.00,50.00
