D:\DATA\SANDY\20140620\158.b\056.D
Intensity Vs Time,CPS
Time [Sec],Mg24,Ca44,V51,Mn55,Rb85,Sr88,Ba138,Ce140,Pb208
0.341,200.00,4734.07,75.00,1275.05,33.33,33.33,0.00,50.00,75.00
0.672,0.00,4333.95,75.00,1500.07,0.00,66.67,0.00,0.00,100.00
1.002,0.00,4500.67,50.00,1600.09,100.00,33.33,0.00,50.00,25.00
1.334,0.00,5100.86,75.00,1875.12,0.00,0.00,66.67,50.00,100.00
1.665,0.00,4200.58,125.00,1875.12,100.00,66.67,33.33,0.00,100.00
1.996,0.00,4534.01,75.00,1850.11,33.33,33.33,33.33,0.00,75.00
2.327,66.67,5300.93,75.00,1900.12,66.67,66.67,0.00,0.00,75.00
2.658,0.00,4400.64,100.00,1525.08,0.00,33.33,0.00,25.00,0.00
2.989,0.00,5000.82,75.00,1450.07,66.67,33.33,33.33,25.00,175.00
3.320,0.00,5067.51,75.00,1725.10,66.67,33.33,66.67,50.00,100.00
3.651,100.00,4867.45,75.00,1775.10,100.00,0.00,66.67,0.00,175.00
3.982,0.00,4934.14,0.00,1625.09,33.33,33.33,33.33,50.00,75.00
4.313,33.33,4300.61,50.00,1875.12,0.00,33.33,0.00,25.00,100.00
4.644,0.00,4967.48,75.00,1850.11,100.00,66.67,0.00,75.00,100.00
4.975,0.00,4700.73,75.00,1300.06,33.33,33.33,66.67,25.00,50.00
5.306,66.67,4867.45,50.00,1300.06,33.33,0.00,66.67,25.00,50.00
5.637,100.00,4534.01,25.00,1900.12,33.33,66.67,33.33,0.00,100.00
5.968,33.33,5334.27,75.00,1525.08,33.33,33.33,66.67,25.00,50.00
6.299,66.67,5667.72,25.00,1675.09,33.33,0.00,33.33,50.00,25.00
6.630,33.33,4534.01,0.00,1975.13,66.67,66.67,0.00,50.00,150.00
6.961,33.33,4200.58,25.00,1225.05,100.00,66.67,33.33,75.00,0.00
7.292,0.00,4200.58,100.00,1475.07,100.00,66.67,33.33,25.00,50.00
7.623,166.67,4467.32,100.00,1500.07,33.33,100.00,33.33,0.00,25.00
7.954,33.33,4367.29,100.00,1650.09,0.00,0.00,0.00,25.00,25.00
8.285,0.00,4734.07,100.00,1550.08,0.00,0.00,33.33,100.00,25.00
8.616,33.33,4800.76,25.00,1575.08,33.33,66.67,0.00,25.00,50.00
8.947,66.67,4500.67,125.00,1775.10,33.33,33.33,33.33,150.00,50.00
9.278,100.00,3967.19,125.00,1925.12,0.00,33.33,100.00,0.00,50.00
9.609,66.67,5100.86,25.00,1600.09,166.67,100.00,0.00,50.00,75.00
9.940,100.00,4734.07,50.00,1750.10,33.33,0.00,33.33,50.00,50.00
10.271,66.67,4600.70,100.00,1800.11,66.67,66.67,0.00,25.00,75.00
10.602,166.67,4634.04,25.00,1925.12,0.00,100.00,66.67,50.00,50.00
10.933,100.00,5034.17,50.00,1700.10,0.00,33.33,33.33,150.00,4750.83
11.264,48409.31,62160.32,1100.04,35241.17,2600.23,15508.16,7368.57,4300.65,27076.89
11.596,113617.63,81585.29,1100.04,14532.00,1366.73,6634.83,4100.59,2075.15,18312.31
11.927,71833.82,131769.32,475.01,11129.11,2166.83,10703.89,100385.81,5326.00,24747.46
12.258,44163.24,99223.15,525.01,17535.20,2533.55,8435.75,2833.62,1975.14,16309.76
12.589,33803.73,61825.63,125.00,10553.69,966.70,3600.44,2733.60,900.03,10579.11
12.920,20980.95,50952.02,450.01,6051.21,11437.76,2766.93,1833.45,4875.84,8427.61
13.251,49178.41,37379.29,1750.10,4200.59,833.36,1966.80,633.35,600.01,10629.15
13.582,32567.74,42325.59,500.01,9778.17,733.35,12171.69,2366.86,4525.72,19664.19
13.913,126719.25,49647.71,275.00,10578.71,666.68,4300.63,1633.43,2075.15,12530.76
14.244,19712.61,30764.47,675.02,8752.54,500.01,6334.70,1366.73,15032.94,26701.15
14.575,36576.73,82925.85,800.02,10603.73,600.01,10036.75,1966.80,3850.52,17811.64
14.906,47138.71,44063.85,375.00,8052.15,1166.71,3333.71,2400.20,1125.04,13406.60
15.237,16742.43,19312.28,275.00,8127.19,766.69,4900.81,1900.13,4350.67,38880.43
15.568,43026.70,53928.94,550.01,10728.82,2100.15,9369.65,3400.41,1600.09,62894.91
15.899,47941.18,68186.11,625.01,18736.64,1033.37,5134.23,3200.36,1975.14,31210.73
16.230,49746.90,93017.41,450.01,13055.65,833.36,13306.01,1733.44,2875.29,13556.74
16.561,43528.10,63231.39,700.02,9027.70,1233.38,5000.85,2066.82,2550.23,16159.58
16.892,40954.38,47574.42,225.00,8177.22,800.02,3633.78,2133.49,6801.63,21767.38
17.223,32467.52,59215.25,425.01,7576.90,1500.08,7101.71,1900.13,2900.30,35095.17
17.554,39016.03,62561.96,525.01,9227.82,2000.14,5400.99,2466.88,1975.14,27302.34
17.885,28993.94,60185.72,500.01,7201.72,1366.73,28026.64,1566.75,900.03,19539.01
18.216,29327.90,90166.94,425.01,8427.36,1700.10,34072.70,5167.60,4275.64,67240.60
18.547,85335.80,179960.23,700.02,10453.63,1266.72,15307.95,126526.10,1575.09,73095.66
18.878,53225.17,59784.14,1925.12,10853.91,833.36,6167.96,1766.78,1500.08,40384.80
19.209,29494.89,40988.59,200.00,5826.13,733.35,12939.01,1466.74,1500.08,23695.60
19.540,16275.26,36009.32,225.00,6251.30,666.68,2833.61,1633.43,325.00,21767.38
19.871,24686.44,35508.14,200.00,5450.99,1000.03,2833.61,1333.40,700.02,15133.40
20.202,11237.43,29595.48,150.00,5050.85,333.34,2400.20,1033.37,1050.04,45149.72
20.533,12705.24,36477.10,325.00,4850.78,1000.03,6501.43,1333.40,1075.04,26375.52
20.864,24519.51,34205.16,100.00,5476.00,1900.12,2666.91,1633.43,1600.09,28304.39
21.195,59882.87,34873.34,200.00,6001.20,1400.07,2766.93,1400.07,2450.21,38980.71
21.526,52154.84,49346.73,300.00,9252.84,4600.72,4233.94,3633.80,1425.07,45601.22
21.857,77997.04,31632.92,425.01,9703.12,2366.86,5267.61,2166.83,2000.14,32463.65
22.188,42859.56,54397.27,600.01,9152.78,2066.81,4934.16,2433.54,1275.06,30734.65
22.519,45233.00,111172.18,475.01,6826.55,3367.05,5734.45,2100.15,2275.18,107346.45
22.850,76891.50,140648.46,800.02,9327.89,1666.76,8068.88,3000.32,1825.12,83429.79
23.181,76690.50,68420.48,400.01,6726.50,1000.03,15975.33,4100.59,3375.40,168308.71
23.512,209279.19,223601.11,525.01,11454.35,433.34,10437.03,5434.37,3275.38,114630.45
23.843,109924.28,94761.48,800.02,10278.51,333.34,18545.00,2966.98,40206.74,73447.54
24.174,45099.28,72037.16,450.01,10678.78,500.01,5601.07,2833.62,2025.14,58651.04
24.505,43962.66,165968.85,750.02,8502.40,366.67,13005.74,1900.13,1050.04,90071.89
24.836,60418.30,37078.55,475.01,18160.94,533.34,13572.92,5734.49,3475.42,271938.34
25.167,97172.30,127802.30,925.03,13656.19,266.67,52359.57,4634.09,6426.45,245620.27
25.498,91504.40,108184.06,525.01,14607.08,733.35,18611.75,3533.77,3650.47,239487.46
25.829,206272.34,129920.17,1625.09,29904.65,2133.49,31066.06,6301.39,2975.31,266940.92
26.160,126215.15,136040.08,1075.04,65416.71,1766.77,16175.54,4400.68,3125.34,180462.87
26.491,56470.02,148893.17,1350.06,51839.02,1300.06,28928.38,2733.60,12880.83,116344.90
26.822,112173.76,170721.13,1200.05,30330.50,566.68,34841.16,6034.61,4800.81,127317.39
27.153,72704.57,128676.30,675.02,16283.79,333.34,24286.67,3200.36,8002.25,131683.62
27.484,47071.84,176857.44,400.01,19687.86,533.34,54634.47,5034.22,14782.68,152878.35
27.815,165652.90,272999.14,600.01,15558.03,533.34,58750.28,5267.64,4025.57,271173.30
28.146,232238.16,316259.84,650.01,15933.42,433.34,88297.21,6568.18,8702.66,332484.87
28.477,124131.66,331854.14,1675.09,24069.21,300.00,124053.56,6501.48,5075.91,756494.21
28.808,1157820.60,1330844.17,2925.28,26898.99,566.68,601051.90,9903.44,14657.55,428615.63
29.139,235308.14,3510994.09,1225.05,28201.37,3233.69,1606751.34,28361.54,15133.05,1256812.72
29.470,524827.13,9299984.58,1850.11,37672.04,6034.57,3446066.48,48883.73,161208.26,934205.88
29.801,371869.96,12889247.16,950.03,48653.43,2766.93,3196831.84,31468.05,6976.71,951707.64
30.132,364360.23,12561569.03,975.03,33512.23,2900.28,3643934.98,30098.43,4250.64,812061.10
30.463,173067.13,14252431.57,525.01,36619.45,3367.05,3862767.01,31301.02,2825.28,402795.13
30.794,105594.13,11230082.54,950.03,17059.65,1466.74,3230790.18,16142.48,2750.27,265819.29
31.126,89324.99,9411025.21,525.01,19287.34,1600.09,2592450.58,18979.30,4700.78,270280.82
31.457,130853.62,10295310.65,425.01,17585.26,1766.77,3004411.27,16676.42,3525.44,278851.03
31.788,77561.52,9382678.33,150.00,22992.53,1300.06,3492340.70,25623.03,5776.17,760799.24
32.119,129643.44,11354109.63,350.00,35491.75,1000.03,3634980.55,27593.37,4625.75,457973.50
32.450,88822.10,10301967.94,400.01,22066.15,400.01,3648803.21,20815.20,5025.89,420493.22
32.781,95998.31,10548259.61,650.01,28677.27,433.34,2985595.90,17177.02,6576.52,166005.70
33.112,118017.21,7937833.51,1075.04,18836.77,533.34,2400439.90,22784.88,10929.20,260900.52
33.443,134114.84,9521129.38,450.01,17785.49,900.03,3324667.78,17777.75,3275.38,365130.26
33.774,123997.24,10425334.61,325.00,15082.55,533.34,2648945.89,17577.50,4025.57,407970.83
34.105,139495.66,11162677.33,375.00,25496.56,466.67,4718026.67,26090.54,3175.35,583096.89
34.436,256654.53,12025485.69,225.00,35491.75,800.02,4472045.41,29129.76,10228.68,580384.63
34.767,162587.16,12825771.12,1900.12,25822.11,1200.05,4130357.38,24554.48,4850.83,473749.62
35.098,323121.59,10067465.85,525.01,20088.38,800.02,3346240.18,21883.46,3650.47,607975.21
35.429,101332.33,9370749.17,250.00,16959.54,766.69,3325578.46,24654.66,2275.18,348579.94
35.760,149488.77,11452351.30,425.01,14882.35,233.34,3436143.31,22050.39,1725.10,423432.24
36.091,128130.86,9343696.04,375.00,16659.20,1000.03,3175992.00,16843.29,3800.51,394096.15
36.422,100359.31,9185575.21,475.01,32284.55,2366.86,4024718.84,24821.61,3225.37,763546.84
36.753,165551.81,12556040.91,400.01,29002.89,2500.21,3547412.06,19146.19,2250.18,418199.18
37.084,97239.40,9197043.96,750.02,15407.87,866.69,3179179.76,17677.63,3125.34,386379.67
37.415,69657.20,9773004.39,375.00,16909.48,500.01,3264545.91,19880.53,10428.82,367852.01
37.746,110696.46,14961106.58,625.01,42710.45,1066.71,3955435.77,25656.42,2675.25,402614.97
38.077,118655.40,14040996.15,200.00,23568.42,500.01,2976505.01,17310.51,3975.56,310857.97
38.408,69255.40,8995434.58,325.00,15533.01,1300.06,2627680.01,13272.85,11554.69,348964.56
38.739,139293.85,13200691.96,325.00,18736.64,3400.39,3543926.38,20648.29,4525.72,463014.81
39.070,132669.06,9615803.34,450.01,13956.46,1700.10,3024120.64,21616.39,7552.00,1731244.37
39.401,234573.12,12027767.98,500.01,22191.33,1533.41,3775687.06,24187.19,4475.70,831302.66
39.732,288375.20,12585781.53,1600.09,34013.35,266.67,4043629.26,28528.54,7952.22,735172.62
40.063,161542.91,16967121.21,900.03,54347.85,400.01,5132909.49,27960.75,4650.76,893826.39
40.394,155952.41,15216264.92,825.02,23893.93,466.67,5628092.31,42697.23,3975.56,667177.46
40.725,158511.66,18018000.40,450.01,14982.45,433.34,4896537.09,24921.78,2750.27,816038.69
41.056,232610.37,13830364.89,500.01,13981.49,1000.03,3746778.99,24688.04,2450.21,747439.08
41.386,195702.38,14043282.61,400.01,16408.93,533.34,3927827.69,28261.34,7051.75,895213.20
41.718,424231.00,12754067.99,1275.05,15933.42,266.67,4546995.93,23786.51,8577.59,2362494.97
42.049,1790808.11,8649663.21,3275.36,37271.04,433.34,2488898.49,42530.06,17360.59,6885873.59
42.380,1842805.77,4905142.82,3750.47,69811.36,400.01,1568094.18,69368.50,21065.59,2328737.75
42.711,885032.77,2820010.22,5225.90,65617.58,1333.39,761058.94,53132.24,21366.03,4122251.65
43.042,1319652.24,1178342.60,14857.30,68103.57,2233.50,228221.20,30699.71,9002.85,2931157.10
43.373,317174.49,570669.54,725.02,20488.92,1733.44,86318.87,10103.58,8852.76,1089969.95
43.704,97205.85,164890.51,250.00,6651.47,466.67,32068.21,2933.64,975.03,276810.02
44.035,169797.69,180904.69,1175.05,10278.51,633.35,17777.39,766.69,9678.29,75156.83
44.366,140134.74,21882.42,275.00,4850.78,500.01,2400.20,1933.46,775.02,107850.38
44.697,16642.32,48443.83,125.00,4275.61,300.00,8769.28,1000.04,1275.06,52199.86
45.028,11637.73,29695.68,250.00,5501.00,266.67,2933.63,766.69,1325.06,42115.02
45.359,12705.24,34806.52,225.00,3725.46,300.00,4667.41,333.34,500.01,21466.90
45.690,6434.68,29194.71,150.00,6051.21,333.34,19512.92,2666.92,1750.11,37551.71
46.021,110024.99,68788.81,450.01,3875.50,433.34,49616.76,1400.07,325.00,18712.85
46.352,6801.50,19445.78,225.00,4225.59,1000.03,1700.10,833.36,950.03,54910.49
46.683,38648.44,32000.35,425.01,6476.39,1033.37,3200.35,1833.45,1100.04,52501.01
47.014,23985.33,29795.87,100.00,4675.73,1033.37,2633.57,1300.06,2200.17,47658.25
47.345,41823.39,25788.55,325.00,6501.40,966.70,5134.23,1066.71,1200.05,68873.73
47.676,20947.57,29929.47,400.01,5801.12,666.68,5834.49,1066.71,725.02,50142.15
48.007,21815.44,41022.01,350.00,7676.96,500.01,26356.90,2100.15,3525.44,58651.04
48.338,35741.44,68654.87,550.01,20564.02,566.68,10003.40,10937.53,3625.46,63296.77
48.669,30296.44,24887.05,250.00,7276.76,133.33,8202.28,700.02,750.02,37852.54
49.000,7168.34,74046.79,75.00,5726.09,666.68,21716.00,3333.72,525.01,53856.29
49.331,10370.16,36744.41,200.00,4800.76,1200.05,25321.75,73991.68,7376.91,516409.14
49.662,121779.64,187585.01,275.00,16884.46,1233.38,58114.42,12438.76,2925.30,665944.30
49.993,192833.22,125785.57,975.03,20488.92,300.00,88129.54,16676.42,12205.23,1165122.68
50.324,174280.70,357083.60,1450.07,14231.72,166.67,34907.99,6801.62,7001.72,1661554.14
50.656,536588.91,269673.83,900.03,19212.24,266.67,109035.43,95082.95,6776.61,1712664.69
50.986,366373.84,2017358.64,725.02,20488.92,100.00,2838733.66,24955.17,6876.66,3771345.01
51.318,289020.38,8811833.53,1400.06,21715.64,933.36,3744523.00,38719.22,22317.49,2248077.78
51.649,1256141.69,10814426.28,850.02,13180.76,800.02,3114247.47,24754.83,2850.29,1367728.25
51.980,187959.23,5865776.69,375.00,12054.82,333.34,1612712.54,27626.76,5426.03,3434393.05
52.311,358935.07,3180788.87,2775.25,24494.89,466.67,1081961.29,16576.31,4675.77,1639828.36
52.642,448367.20,2102257.86,450.01,9828.20,133.33,533075.21,5967.92,2425.21,858777.85
52.973,125173.37,1248369.56,375.00,6876.57,33.33,766260.04,7301.87,3900.53,1401849.84
53.304,304480.83,4884943.34,925.03,13180.76,233.34,3414318.57,27059.01,22743.17,2270546.34
53.635,221582.87,12618253.41,725.02,13881.39,300.00,5780307.42,24253.97,7176.81,1943117.43
53.966,498541.65,15077149.30,675.02,12254.98,366.67,6460143.89,23352.46,97256.33,2025070.16
54.297,152753.93,16702604.54,375.00,26623.50,300.00,6417214.73,33840.15,160247.49,3200720.58
54.628,203164.78,15870646.19,800.02,20063.35,333.34,4730193.33,23753.12,23794.89,836628.14
54.959,207691.22,13021469.04,450.01,15808.29,666.68,4580726.66,19913.91,12680.65,410288.97
55.290,117311.84,15370880.55,400.01,14406.89,533.34,4397902.18,23586.18,2675.25,526510.17
55.621,73474.88,13052320.08,325.00,13931.44,2333.52,3510046.43,22851.65,6801.63,1527047.50
55.952,362381.03,12464842.99,2350.18,45894.80,2400.20,3593806.33,67124.46,23494.39,2086894.77
56.283,754369.22,13746626.35,2950.29,53996.59,866.69,3524324.56,117415.27,16634.72,2546188.53
56.614,571408.61,12735890.91,1175.05,18736.64,300.00,3655195.13,18545.40,156177.62,2425468.61
56.945,335515.76,13645112.80,1025.03,23543.38,166.67,2391042.50,17777.75,4925.85,1270920.34
57.276,225336.76,5192265.22,425.01,10728.82,200.00,1151124.37,9936.80,4400.68,977249.92
57.607,224660.31,2674979.49,1375.06,9377.92,166.67,388455.90,8635.95,2275.18,738205.34
57.938,109085.00,965822.61,650.01,9477.98,100.00,193631.11,155039.16,1575.09,1242920.44
58.269,407453.56,408454.57,275.00,6951.60,100.00,51958.15,11838.25,1650.10,2542719.98
58.600,465154.31,147513.12,1150.04,12730.38,266.67,53095.53,203104.37,4450.70,8979295.51
58.931,714291.03,110668.54,1400.06,11504.39,233.34,25555.49,18044.76,5175.94,4557868.07
59.262,330304.89,140783.01,1475.07,16333.85,366.67,30431.41,11337.84,8127.32,2661159.24
59.593,232508.88,128541.84,1000.03,56028.99,700.02,49081.65,16709.80,12380.39,3851023.91
59.924,533380.25,203082.49,3250.35,51663.42,566.68,43898.66,17944.63,19488.34,2237279.74
60.255,374294.31,168664.98,975.03,30581.00,466.67,28995.18,48214.80,7902.19,1906168.60
60.586,254519.52,224277.67,875.03,18936.89,333.34,26356.90,74929.88,5426.03,1922670.55
60.917,333744.54,183131.16,825.02,24319.61,366.67,21649.23,20281.09,2450.21,741116.47
61.248,117009.54,52289.89,550.01,6801.54,133.33,4800.78,4067.25,350.00,102584.95
61.579,24486.12,23551.59,150.00,2650.23,300.00,1166.71,1333.40,50.00,57847.60
61.910,4634.03,13606.09,25.00,2100.15,133.33,633.35,200.00,0.00,10704.21
62.241,13806.19,8135.51,50.00,1825.11,33.33,333.34,1933.46,75.00,6501.55
62.572,1666.76,8669.14,75.00,1875.12,66.67,300.00,33.33,200.00,4075.61
62.903,1633.42,6734.83,75.00,2150.15,33.33,233.34,33.33,75.00,3075.35
63.234,1466.74,8368.97,75.00,1800.11,100.00,666.68,0.00,100.00,4200.65
63.565,1633.42,7768.65,25.00,2025.14,100.00,233.34,33.33,25.00,1025.04
63.896,666.68,7168.36,150.00,1400.07,133.33,200.00,33.33,0.00,1725.11
64.227,733.35,6901.57,50.00,2100.15,133.33,433.34,133.33,150.00,1250.06
64.558,733.35,5567.69,75.00,1625.09,33.33,133.33,33.33,0.00,1150.05
64.889,2000.13,6501.39,125.00,1900.12,33.33,366.67,0.00,250.00,1275.06
65.220,1466.74,6601.44,50.00,2025.14,133.33,133.33,0.00,50.00,1275.06
65.551,2366.85,6634.78,100.00,1975.13,33.33,233.34,166.67,450.01,1200.05
65.882,800.02,6334.65,50.00,1875.12,133.33,400.01,166.67,150.00,1400.07
66.213,1433.40,6101.23,125.00,1700.10,133.33,633.35,133.33,100.00,3000.33
66.544,2866.93,5901.15,50.00,1875.12,133.33,100.00,100.00,50.00,2250.19
66.875,1100.04,6067.88,25.00,1925.12,66.67,0.00,200.00,50.00,900.03
67.206,933.36,6234.61,50.00,1450.07,166.67,66.67,0.00,50.00,750.02
67.537,900.03,6334.65,50.00,1525.08,133.33,166.67,200.00,0.00,1000.04
67.868,1133.38,5367.62,25.00,2300.18,66.67,266.67,266.67,125.00,1900.13
68.199,866.69,5667.72,50.00,1800.11,133.33,66.67,166.67,50.00,675.02
68.530,1066.70,5501.00,100.00,1450.07,66.67,300.00,66.67,50.00,1050.04
68.861,666.68,6801.52,75.00,2100.15,33.33,66.67,66.67,0.00,700.02
69.192,900.03,6034.53,25.00,1825.11,100.00,100.00,100.00,50.00,700.02
69.523,766.69,7235.06,25.00,1900.12,33.33,66.67,33.33,75.00,625.01
69.854,1566.75,6334.65,100.00,1525.08,66.67,66.67,166.67,25.00,675.02
70.185,666.68,6868.22,50.00,2100.15,100.00,33.33,0.00,25.00,625.01
70.517,833.36,6067.88,75.00,1600.09,33.33,0.00,66.67,75.00,1375.07
70.848,1000.03,6034.53,100.00,2000.13,100.00,100.00,100.00,50.00,575.01
71.179,633.35,6301.31,50.00,1900.12,33.33,166.67,100.00,50.00,350.00
71.510,900.03,6568.09,25.00,1800.11,166.67,166.67,0.00,150.00,700.02
71.841,433.34,6001.19,50.00,1625.09,66.67,166.67,0.00,25.00,700.02
72.172,766.69,5867.80,25.00,2125.15,100.00,66.67,0.00,0.00,775.02
72.503,1133.38,5300.93,50.00,1500.07,66.67,100.00,33.33,350.00,350.00
72.834,1500.07,5400.96,75.00,1750.10,133.33,33.33,0.00,225.00,275.00
73.165,566.68,6101.23,50.00,2175.16,66.67,133.33,133.33,100.00,375.01
73.496,533.34,7068.31,25.00,1900.12,133.33,0.00,33.33,50.00,325.00
73.827,833.36,5867.80,75.00,1700.10,133.33,100.00,33.33,175.00,400.01
74.158,1800.11,6267.96,75.00,1900.12,100.00,66.67,33.33,75.00,550.01
74.489,1033.37,6401.35,125.00,1650.09,0.00,100.00,66.67,25.00,400.01
74.820,2766.92,6334.65,100.00,1900.12,200.00,100.00,33.33,50.00,600.01
75.151,466.67,6668.13,25.00,2550.22,66.67,66.67,66.67,75.00,475.01
75.482,333.34,7101.66,25.00,1925.12,66.67,66.67,133.33,50.00,425.01
75.813,633.35,6167.92,50.00,1150.04,133.33,133.33,33.33,25.00,500.01
76.144,500.01,5701.07,100.00,1875.12,100.00,0.00,33.33,25.00,275.00
76.475,1300.05,6501.39,25.00,1575.08,166.67,66.67,33.33,75.00,375.01
76.806,633.35,5967.84,100.00,1575.08,166.67,133.33,33.33,25.00,425.01
77.137,666.68,6067.88,100.00,2025.14,66.67,0.00,0.00,25.00,475.01
77.468,866.69,5667.72,100.00,1675.09,133.33,66.67,66.67,0.00,2950.32
77.799,633.35,6334.65,100.00,2075.14,66.67,33.33,66.67,50.00,650.02
78.130,1666.76,5734.42,100.00,1575.08,166.67,33.33,33.33,50.00,425.01
78.461,1133.38,5967.84,0.00,1775.10,133.33,133.33,33.33,75.00,400.01
78.792,900.03,5801.11,75.00,1950.13,133.33,100.00,66.67,50.00,475.01
79.123,533.34,6434.70,50.00,2025.14,33.33,0.00,100.00,0.00,525.01
79.454,533.34,6434.70,125.00,1700.10,100.00,100.00,100.00,125.00,500.01
79.785,500.01,6534.74,125.00,1800.11,33.33,133.33,33.33,25.00,525.01
80.116,933.36,5667.72,125.00,2150.15,133.33,100.00,66.67,25.00,475.01
80.447,833.36,6601.44,50.00,2000.13,133.33,66.67,100.00,225.00,525.01
80.778,1666.76,6134.57,150.00,2250.17,0.00,166.67,100.00,75.00,750.02
81.109,1866.78,6868.22,50.00,1825.11,200.00,166.67,100.00,100.00,1600.09
81.440,5967.82,6401.35,25.00,1750.10,0.00,166.67,33.33,50.00,4900.88
81.770,800.02,6634.78,50.00,1675.09,66.67,66.67,133.33,50.00,1875.13
82.102,633.35,7001.61,100.00,2050.14,133.33,0.00,0.00,100.00,1200.05
82.433,533.34,6468.04,50.00,1975.13,33.33,0.00,0.00,50.00,475.01
82.764,1633.42,5601.03,25.00,1725.10,100.00,33.33,0.00,50.00,200.00
83.095,600.01,5834.45,75.00,1750.10,100.00,66.67,33.33,25.00,125.00
83.426,66.67,4700.73,75.00,1650.09,66.67,33.33,0.00,0.00,75.00
83.757,33.33,5067.51,25.00,1725.10,66.67,66.67,166.67,25.00,100.00
84.088,33.33,5467.65,50.00,1725.10,33.33,33.33,66.67,25.00,50.00
84.419,66.67,4233.92,25.00,2100.15,66.67,33.33,0.00,0.00,100.00
84.750,33.33,4534.01,125.00,1475.07,100.00,133.33,0.00,25.00,125.00
85.081,200.00,5034.17,75.00,1825.11,0.00,33.33,33.33,25.00,100.00
85.412,0.00,4767.41,75.00,1875.12,33.33,100.00,0.00,150.00,50.00
85.743,66.67,3900.50,150.00,2175.16,200.00,33.33,0.00,50.00,75.00
86.074,33.33,4500.67,50.00,1850.11,0.00,33.33,33.33,0.00,125.00
86.405,0.00,5200.89,25.00,2050.14,0.00,0.00,0.00,75.00,125.00
86.736,133.33,5734.42,25.00,1850.11,33.33,33.33,33.33,0.00,50.00
87.067,66.67,4800.76,100.00,1625.09,100.00,0.00,33.33,0.00,125.00
87.398,66.67,3967.19,75.00,1700.10,33.33,33.33,33.33,25.00,75.00
87.729,133.33,5067.51,125.00,2050.14,166.67,133.33,66.67,75.00,75.00
88.060,33.33,4634.04,75.00,1575.08,66.67,0.00,66.67,25.00,300.00
88.391,33.33,4033.87,75.00,1350.06,33.33,0.00,33.33,50.00,175.00
88.722,0.00,5667.72,75.00,1475.07,66.67,66.67,33.33,0.00,25.00
89.053,33.33,5000.82,50.00,1750.10,0.00,33.33,0.00,50.00,50.00
89.384,0.00,4333.95,25.00,2375.19,33.33,0.00,0.00,50.00,75.00
89.715,0.00,5434.31,50.00,1800.11,0.00,0.00,0.00,50.00,75.00
90.047,33.33,5100.86,75.00,1875.12,133.33,66.67,33.33,50.00,0.00
90.378,66.67,4033.87,25.00,1775.10,0.00,0.00,0.00,25.00,100.00
90.705,0.00,4834.10,25.00,2050.14,100.00,0.00,66.67,50.00,25.00
