D:\DATA\SANDY\20140620\158.b\046.D
Intensity Vs Time,CPS
Time [Sec],Mg24,Ca44,V51,Mn55,Rb85,Sr88,Ba138,Ce140,Pb208
0.341,66.67,4700.73,50.00,1925.12,0.00,33.33,0.00,25.00,100.00
0.672,100.00,5267.58,50.00,1450.07,66.67,33.33,33.33,0.00,50.00
1.002,133.33,4667.38,50.00,1825.11,33.33,0.00,0.00,0.00,50.00
1.334,100.00,4233.92,25.00,1475.07,0.00,0.00,0.00,50.00,175.00
1.665,66.67,4000.53,75.00,1425.07,33.33,0.00,0.00,75.00,25.00
1.997,0.00,4700.73,125.00,1925.12,33.33,33.33,0.00,0.00,125.00
2.328,66.67,4934.14,50.00,2250.17,66.67,33.33,33.33,0.00,75.00
2.659,33.33,4834.10,50.00,1550.08,33.33,0.00,33.33,50.00,75.00
2.990,66.67,4734.07,100.00,1600.09,0.00,33.33,33.33,50.00,50.00
3.321,100.00,4433.98,0.00,1400.07,66.67,33.33,66.67,0.00,25.00
3.652,66.67,4834.10,75.00,1600.09,0.00,33.33,0.00,25.00,50.00
3.983,33.33,4667.38,0.00,2050.14,0.00,133.33,0.00,50.00,50.00
4.314,100.00,5134.20,50.00,1750.10,0.00,33.33,0.00,100.00,25.00
4.645,33.33,4667.38,50.00,1925.12,0.00,0.00,33.33,50.00,25.00
4.976,66.67,4100.55,75.00,1700.10,0.00,33.33,66.67,25.00,125.00
5.307,100.00,4500.67,100.00,1825.11,33.33,0.00,0.00,0.00,75.00
5.638,33.33,5034.17,100.00,1725.10,100.00,0.00,33.33,25.00,50.00
5.969,66.67,4734.07,100.00,1775.10,0.00,66.67,33.33,0.00,0.00
6.300,133.33,4534.01,100.00,1875.12,66.67,0.00,0.00,50.00,100.00
6.631,0.00,4667.38,100.00,1500.07,33.33,66.67,33.33,0.00,75.00
6.962,66.67,5367.62,75.00,1475.07,0.00,0.00,33.33,100.00,50.00
7.293,66.67,4400.64,25.00,1925.12,100.00,100.00,0.00,75.00,25.00
7.624,0.00,4634.04,75.00,1900.12,66.67,0.00,66.67,0.00,50.00
7.955,33.33,4667.38,50.00,1800.11,33.33,33.33,0.00,25.00,25.00
8.286,66.67,4734.07,75.00,2025.14,66.67,66.67,33.33,50.00,50.00
8.617,33.33,5067.51,50.00,1800.11,133.33,0.00,100.00,50.00,25.00
8.948,100.00,5200.89,25.00,1800.11,66.67,33.33,33.33,25.00,50.00
9.279,133.33,5367.62,100.00,2125.15,0.00,33.33,33.33,75.00,100.00
9.610,0.00,5667.72,25.00,1550.08,100.00,0.00,66.67,25.00,75.00
9.941,33.33,4534.01,25.00,1875.12,33.33,0.00,33.33,0.00,125.00
10.272,33.33,4767.41,150.00,1750.10,0.00,100.00,0.00,75.00,100.00
10.602,66.67,4700.73,150.00,1575.08,33.33,0.00,33.33,25.00,125.00
10.934,100.00,4467.32,50.00,1500.07,133.33,0.00,33.33,0.00,450.01
11.265,3867.15,21582.00,225.00,13255.83,2733.59,38082.50,9736.66,5826.19,42817.21
11.596,107842.98,91172.93,2850.27,20664.16,3167.01,11404.42,19012.68,3800.51,30033.08
11.927,64267.16,87618.77,400.01,10878.93,1566.75,12238.42,2966.98,6451.46,24547.10
12.258,37746.21,69994.30,275.00,6826.55,833.36,3267.03,1766.78,1700.10,17386.09
12.589,30597.04,68989.72,175.00,6626.46,666.68,7902.12,2133.49,3050.33,21567.07
12.920,70259.93,102645.81,450.01,15858.34,1500.08,19446.16,9269.68,4625.75,24196.48
13.251,41622.84,82155.01,400.01,7802.02,1000.03,5534.37,2800.28,6301.40,21241.55
13.582,28292.63,68554.42,300.00,21039.68,966.70,9369.65,2033.48,18386.87,19589.08
13.913,39784.66,75386.70,1550.08,15758.24,1300.06,8202.28,1966.80,4800.81,17661.44
14.244,31532.25,52089.20,200.00,8252.26,766.69,9603.13,1766.78,2100.16,10554.09
14.575,22616.60,48243.19,675.02,9277.86,1200.05,10937.39,1833.45,2425.21,23319.95
14.906,57942.14,83026.39,850.02,23543.38,3233.69,15474.79,4267.31,10203.66,39983.62
15.237,73072.98,177734.23,775.02,11854.66,2466.87,11904.81,3733.82,1850.12,22268.19
15.568,42358.18,66478.55,325.00,8477.38,966.70,8502.45,2833.62,1900.13,33967.31
15.899,59347.47,57307.95,875.03,15232.70,1833.45,11104.18,3500.43,2075.15,38730.00
16.230,45600.75,73443.87,1000.03,9277.86,1033.37,15007.64,3767.16,1400.07,23094.57
16.561,27491.19,36677.58,300.00,6751.51,500.01,4767.44,1966.80,1200.05,12856.07
16.892,13572.65,34739.70,200.00,10778.85,266.67,2900.29,900.03,425.01,12080.35
17.223,16008.32,75922.68,100.00,5701.08,733.35,8702.57,1100.04,1800.11,23119.61
17.554,26456.04,78938.01,75.00,5801.12,900.03,8168.93,900.03,850.03,18112.04
17.885,21314.74,62997.09,400.01,4900.80,1133.38,6034.57,1700.10,625.01,16384.85
18.216,17276.36,70563.61,200.00,6176.27,866.69,13906.56,1733.44,925.03,20916.05
18.547,91772.67,47039.43,375.00,4375.64,200.00,8902.69,2133.49,1000.04,46704.95
18.878,69724.17,44030.42,100.00,7576.90,466.67,13372.74,3967.22,1600.09,52576.30
19.209,50148.19,111440.81,600.01,8602.46,366.67,56708.96,3467.09,1050.04,65934.24
19.540,33302.64,122559.35,100.00,7001.63,400.01,45837.88,40290.23,2100.16,155912.43
19.871,51385.59,197543.48,300.00,11104.09,366.67,25555.49,8302.42,3425.41,525834.78
20.202,72403.16,190588.76,475.01,9452.96,700.02,33237.46,5000.88,3750.49,561491.81
20.533,204752.25,181916.67,1050.04,14231.72,933.36,35876.98,5034.22,12505.49,309272.47
20.864,92007.38,300137.47,1350.06,9603.06,966.70,81089.28,5501.06,4325.66,357763.53
21.195,319616.22,2267809.43,3225.34,22616.97,3667.12,716304.38,39254.01,21641.45,544106.99
21.526,409575.43,7826363.20,1425.07,43086.52,5467.68,3748505.29,39822.26,9503.17,482731.90
21.858,227941.33,18380498.33,2325.18,29954.75,7301.81,4199404.78,39521.42,3550.44,189965.81
22.189,147705.03,16168185.78,300.00,13656.19,3233.69,3592241.49,26123.94,1350.06,104449.04
22.520,53492.75,11531130.47,400.01,12154.90,2166.83,4218592.54,30766.53,3475.42,114050.61
22.851,91169.09,14908519.08,825.02,17284.91,3867.17,5720028.25,33472.62,5476.05,95559.11
23.182,91772.67,14283658.65,325.00,8802.57,2633.57,5124704.80,27192.60,2750.27,95836.04
23.513,52589.65,14103881.57,450.01,9928.27,1800.11,4779294.90,56177.22,4350.67,354812.83
23.844,156996.26,14139625.32,975.03,17435.08,2000.14,5136250.64,32603.94,3425.41,239258.48
24.175,65673.08,15429503.47,350.00,16458.98,600.01,3987614.15,24888.39,4575.74,218793.63
24.506,134686.45,16096545.15,525.01,25822.11,2433.53,6732573.59,44937.44,4550.73,151816.57
24.837,144440.94,15024532.63,575.01,23017.57,1900.12,5666890.23,32770.98,2525.22,131607.89
25.168,83559.43,14473646.16,400.01,14807.28,2333.52,3551299.30,17310.51,2350.19,89065.30
25.499,51954.16,11096567.96,225.00,14582.05,1800.11,3575736.28,21215.79,2900.30,128932.49
25.830,84564.90,11925228.39,300.00,15082.55,2333.52,3191048.51,18044.76,3525.44,163247.65
26.161,367500.24,14444982.61,825.02,13030.63,766.69,2828524.80,16109.10,7401.93,196583.74
26.492,109622.16,11664820.05,675.02,18336.15,1666.76,3479093.57,28662.14,4725.78,145978.23
26.823,79940.30,14451102.41,1925.12,30355.55,2033.47,3856391.75,25355.88,1925.13,104751.32
27.154,59782.49,11903926.31,600.01,13005.61,1900.12,3460721.17,25489.45,3125.34,69326.02
27.485,65304.86,11227416.92,22917.37,8627.47,1900.12,3349874.81,18211.63,4350.67,68094.82
27.816,122317.21,12455432.57,375.00,6376.35,1766.77,3213357.62,17243.77,3000.32,74679.21
28.147,103379.19,13545524.26,425.01,11329.26,3567.10,3457670.13,33038.27,3700.48,105985.82
28.478,138183.89,10427013.77,225.00,12905.52,1866.78,2290992.76,14907.80,8627.61,157606.78
28.809,113483.29,10508331.48,575.01,18511.36,1166.71,2180253.95,13072.66,4450.70,169574.26
29.140,69556.75,11610823.18,475.01,11654.51,1233.38,2662168.29,11104.33,2200.17,105255.19
29.471,54161.75,9994759.60,125.00,18611.49,866.69,2004462.81,8302.42,5826.19,119118.72
29.802,63129.14,9522977.30,300.00,11179.15,1666.76,2778086.00,10403.80,2000.14,174637.65
30.133,132164.74,14347270.11,550.01,11854.66,2300.18,2341042.50,9169.62,1525.08,124062.55
30.464,72269.18,11820936.72,400.01,14982.45,1333.39,2541361.78,11004.25,1400.07,130421.57
30.795,67447.39,10936029.41,350.00,9953.29,466.67,1790101.60,7868.84,1650.10,96415.11
31.126,84162.71,7447064.75,275.00,6551.43,466.67,1813830.77,7902.19,925.03,144740.12
31.457,71097.08,13493809.68,250.00,34088.52,1366.73,3724863.10,24988.57,1550.08,211911.06
31.788,109017.87,12476461.74,100.00,24169.37,733.35,2271622.71,15975.62,1650.10,146433.08
32.119,47707.12,9048661.66,200.00,11154.13,700.02,1613871.65,7602.03,1700.10,107371.62
32.450,118554.63,7612923.09,300.00,11029.03,600.01,1736727.51,11838.25,2950.31,355351.59
32.781,72738.06,10235635.65,450.01,25772.03,1000.03,2270964.37,14740.96,4050.58,234425.52
33.112,77427.51,9727997.09,375.00,27424.94,900.03,2459448.23,13539.76,1900.13,251908.60
33.443,66476.52,9418816.88,100.00,15057.52,300.00,2446445.11,13739.96,3350.39,329309.11
33.774,78499.59,11652423.18,1600.09,16984.57,500.01,2571735.21,13906.79,3300.38,181020.17
34.105,40920.96,8950555.41,250.00,11229.18,466.67,1679296.52,10970.89,3025.32,150830.68
34.436,36476.49,7348450.69,375.00,14081.58,833.36,1934028.82,13473.04,4800.81,157910.26
34.767,106131.15,7601377.25,250.00,18861.80,2133.49,2828231.05,26758.44,4375.67,335558.89
35.098,177854.54,14356314.90,500.01,40704.91,3467.07,3007143.56,35811.63,3275.38,190599.56
35.429,177213.89,9618761.67,150.00,21114.78,2466.87,2470824.27,26457.88,3100.34,111454.24
35.760,196782.72,9783885.64,300.00,15733.21,1700.10,1794659.42,18612.15,5826.19,414771.69
36.091,92946.34,7623150.69,250.00,14682.15,1000.03,1384892.87,13906.79,4925.85,252799.86
36.422,117916.43,10151065.85,250.00,12004.78,700.02,1796228.43,8669.30,2125.16,119749.21
36.753,56168.93,9982117.93,650.01,18986.96,1300.06,2104293.28,12005.06,4700.78,219530.35
37.084,83056.72,9245940.83,200.00,17985.73,1100.04,1975765.93,14907.80,3000.32,420183.94
37.415,79370.70,13706135.72,325.00,25446.47,500.01,2279016.46,14974.53,3250.37,411087.51
37.746,71197.55,9228395.00,650.01,25822.11,400.01,2006445.75,14774.33,6376.43,441828.04
38.077,113584.03,13648786.76,475.01,28677.27,800.02,2454828.18,12638.94,5175.94,250635.41
38.408,65104.00,8058436.64,425.01,17410.05,966.70,1953353.30,15408.33,3300.38,197268.52
38.739,146157.02,9049566.87,1925.12,24870.51,2866.95,2161418.02,11337.84,5376.01,206554.69
39.070,158376.96,9602286.67,675.02,16484.01,3533.76,2375108.65,12038.42,3625.46,196837.37
39.401,95461.66,10721760.66,450.01,27224.58,3767.15,2693543.55,16075.73,3550.44,295981.92
39.732,94690.24,12088027.35,425.01,42359.46,3167.01,2660156.31,16676.42,3925.54,268266.58
40.063,120939.74,10999659.62,425.01,34188.75,933.36,2266626.09,12805.75,3600.46,312085.55
40.394,101936.28,10716809.61,425.01,22692.08,500.01,2632018.55,15975.62,4800.81,257231.72
40.725,119999.07,12793094.04,300.00,19562.69,633.35,2329591.98,11171.05,3925.54,186341.22
41.056,69021.01,7599003.82,400.01,11879.68,500.01,1460220.08,7802.14,2300.19,250635.41
41.388,132433.71,7951625.18,375.00,12955.57,1566.75,2097528.95,9403.10,2375.20,388256.89
41.719,151643.00,9659412.72,1000.03,26848.91,766.69,2415773.49,14240.45,4200.62,485658.26
42.050,149522.42,12911528.41,375.00,25822.11,366.67,2565041.20,11804.89,4925.85,421627.60
42.381,112677.42,10947999.20,425.01,23343.07,866.69,2375555.78,9970.16,4475.70,320912.17
42.712,105560.59,7764752.78,475.01,19137.15,700.02,2358508.13,12372.04,4450.70,467980.19
43.043,126147.94,15136363.88,550.01,40880.39,533.34,3875455.56,24420.92,8352.45,500428.87
43.374,111132.90,13422829.47,725.02,21290.03,200.00,3745234.98,17544.13,3075.33,583253.33
43.705,72235.69,11481832.55,550.01,16283.79,400.01,3100180.54,14440.65,5100.91,606668.81
44.036,144743.79,10799127.32,2125.15,24194.41,566.68,2726309.96,12672.30,6951.70,1178639.87
44.367,176236.09,8828166.86,1075.04,22667.04,166.67,2661261.78,18144.88,5300.99,3287266.48
44.698,517071.30,10492465.86,1200.05,27625.31,300.00,2831890.43,34809.14,5851.20,3406637.58
45.029,621458.87,9103801.25,2275.17,28251.46,366.67,2146291.32,19179.57,15082.99,2347450.44
45.360,285998.15,8053294.97,900.03,33863.02,333.34,2073547.31,10337.08,10653.99,1211324.05
45.691,212725.93,6252283.47,625.01,11304.24,166.67,1603389.75,5767.83,3000.32,383834.12
46.022,75786.04,2500697.19,900.03,35591.99,600.01,1453406.02,30833.34,13806.70,2629763.54
46.353,602181.91,8747667.90,3650.44,48678.51,633.35,3881917.53,25021.96,9878.43,1407126.30
46.684,518518.73,12000487.77,725.02,28677.27,300.00,5770065.23,54637.92,4625.75,1220223.27
47.015,210495.58,12558823.20,300.00,26723.68,233.34,6184911.60,42630.36,3675.47,523705.04
47.346,232711.90,14751705.54,450.01,17860.58,166.67,7217414.74,38050.76,4875.84,519576.38
47.677,78131.04,14495379.49,300.00,28351.65,166.67,5315241.79,25222.31,2725.26,512827.55
48.008,56302.74,12427047.15,250.00,15908.40,233.34,4181843.84,20247.71,8877.77,493793.18
48.339,79873.28,13341048.21,525.01,11504.39,300.00,4234033.95,14874.43,2375.20,528770.23
48.670,66275.65,15032557.63,250.00,10803.87,833.36,4803947.50,18411.89,2550.23,643057.78
49.001,146392.57,14160230.52,250.00,20463.89,500.01,4988949.59,24053.62,4125.60,544861.29
49.332,83760.53,16794846.21,275.00,30681.20,700.02,4369975.62,20548.14,5601.10,306715.61
49.663,64334.11,16049785.78,350.00,18486.34,2300.18,4071552.17,116003.75,4350.67,504214.76
49.994,107205.23,18783071.25,250.00,29629.11,1633.42,3821713.11,23853.29,4275.64,347733.72
50.325,65606.13,13833606.56,250.00,14932.40,1000.03,3995413.63,22951.81,2375.20,325007.60
50.656,57272.97,14003102.40,350.00,9077.73,933.36,4524012.08,17844.51,3925.54,324060.43
50.986,62827.91,16215195.15,250.00,9828.20,566.68,3881884.46,17610.88,3225.37,420519.00
51.318,105829.07,15330751.38,400.01,16659.20,433.34,3576307.63,15308.22,2900.30,419926.13
51.649,80476.41,12185381.52,425.01,17259.88,1166.71,3024766.47,14540.75,5326.00,448180.63
51.980,96903.94,10968980.45,750.02,17009.60,2066.81,3615217.27,19146.19,3750.49,1671830.31
52.311,400303.00,11887837.77,675.02,14156.65,1600.09,3389645.39,14740.96,1750.11,899454.71
52.642,215936.84,12006337.77,13531.06,15182.65,2266.84,2428263.34,11204.41,2350.19,944693.67
52.973,191786.93,9104962.70,550.01,11354.28,1733.44,2309820.36,9236.33,2275.18,483612.32
53.304,78700.61,9951913.76,250.00,21415.21,5034.19,3439624.82,14874.43,4475.70,290771.49
53.635,82587.55,13112677.38,525.01,17735.43,6067.91,3228393.30,13906.79,2450.21,201580.99
53.966,60050.20,13765240.93,1075.04,11754.58,833.36,3010964.39,10270.37,2600.24,173093.09
54.297,119024.88,9242756.46,175.00,10528.68,600.01,3147080.02,12105.14,2125.16,314950.40
54.628,49078.08,9674167.92,200.00,9227.82,900.03,2775626.88,8435.83,2275.18,237554.03
54.959,34405.06,8683599.67,650.01,6201.28,466.67,2096663.72,8602.60,2125.16,141481.14
55.290,23551.33,8715947.59,100.00,6926.59,166.67,2312693.28,7501.98,2050.15,167068.58
55.621,31799.47,9413204.38,125.00,10153.42,200.00,3123193.56,14907.80,2275.18,157632.07
55.952,37278.40,11023754.41,175.00,12955.57,433.34,4382597.49,18512.02,2600.24,206580.06
56.283,291296.07,12563150.28,500.01,9553.03,300.00,3586901.38,16142.48,1975.14,159933.68
56.614,189627.09,12072147.14,200.00,12855.48,866.69,3210430.80,20014.05,2500.22,257766.68
56.945,58778.64,13785440.93,225.00,15533.01,733.35,3909463.63,16609.68,1525.08,167068.58
57.276,47439.63,12166937.77,175.00,9728.14,366.67,3301460.23,12105.14,2075.15,120985.05
57.607,42324.76,12457437.78,375.00,8177.22,866.69,4015764.67,28662.14,1450.07,166840.81
57.938,34605.51,13738893.02,100.00,9703.12,1266.72,3844080.29,17010.15,1975.14,126257.60
58.269,28025.48,13219755.50,225.00,18411.24,1166.71,4350468.85,20047.43,2100.16,158972.53
58.600,56470.02,16684679.54,100.00,19587.73,1833.45,3794394.62,17243.77,3575.45,116244.03
58.931,113819.09,12791425.29,375.00,14356.84,1200.05,3859670.66,15274.85,4025.57,148530.62
59.262,50315.40,13680006.56,250.00,19212.24,2100.15,5340684.49,28996.15,2225.17,276886.53
59.593,96669.14,15779013.89,200.00,25746.98,2400.20,5084594.38,20915.34,1825.12,320477.11
59.924,68117.00,14433352.41,325.00,14657.13,1700.10,4118517.80,18945.92,3100.34,164715.16
60.255,35674.61,14054700.31,275.00,6451.38,2000.14,5287082.93,18912.55,750.02,175802.48
60.586,71867.32,15800371.19,725.02,6851.56,1600.09,5903258.47,24253.97,2750.27,346272.18
60.918,92644.52,13204864.88,225.00,10403.59,1933.46,6315053.27,27392.98,3050.33,405781.87
61.249,54161.75,15325296.18,400.01,16058.55,1300.06,4702854.27,21449.47,1450.07,197826.54
61.580,38180.61,13879282.60,175.00,8027.14,966.70,4253830.30,17243.77,2000.14,178284.45
61.911,36242.60,11705759.64,275.00,9928.27,966.70,4817389.17,22350.86,2725.26,259295.32
62.242,64468.00,14709549.29,100.00,19087.08,1933.46,5391607.93,29296.77,2525.22,808164.28
62.573,329623.90,14976059.71,250.00,11579.45,1500.08,5677632.94,25422.67,1900.13,890040.16
62.904,97977.39,12475738.82,325.00,7026.64,1400.07,4929249.59,18779.03,1475.08,383397.13
63.235,46837.79,13691899.26,375.00,8177.22,1866.78,5129428.24,21516.24,1550.08,345220.95
63.566,62627.09,14117836.77,500.01,19662.82,1666.76,5254635.53,27994.15,2750.27,605571.55
63.897,116438.57,16658941.00,500.01,12179.92,1733.44,4361886.30,23552.79,2000.14,203204.89
64.228,57072.24,12835702.37,625.01,10803.87,666.68,3849863.37,17010.15,3575.45,341273.27
64.559,64802.73,12683796.12,300.00,11704.55,400.01,3264914.40,13306.21,5751.16,772876.78
64.890,140067.50,10678917.95,625.01,23418.19,466.67,3379975.08,15508.44,6026.28,1260123.66
65.221,222157.72,11792166.93,825.02,22667.04,433.34,2387594.06,20314.48,7877.18,1868403.17
65.552,441815.18,6709784.52,1075.04,19662.82,200.00,1616632.85,20982.11,7927.21,2482170.76
65.883,391309.48,6517748.58,700.02,17935.67,133.33,1763292.49,11037.61,3900.53,1078681.27
66.214,303019.02,4230484.47,750.02,12780.42,266.67,655561.08,11304.48,2750.27,785176.29
66.545,158511.66,939926.71,700.02,7802.02,33.33,146087.57,4200.62,950.03,1103141.33
66.876,81615.72,309761.30,200.00,5776.11,166.67,38984.86,1733.44,4950.86,794917.74
67.207,181665.29,126155.28,250.00,6601.45,0.00,115013.98,16409.45,2175.17,2064737.94
67.538,166057.23,73108.94,175.00,12955.57,33.33,14373.68,3033.66,400.01,1406625.23
67.869,96132.47,62963.62,250.00,5876.15,166.67,11537.85,81633.25,750.02,1351219.37
68.200,164911.67,55936.19,575.01,4250.60,100.00,7201.76,5801.18,525.01,1088641.24
68.531,181867.68,44632.17,325.00,51487.83,366.67,8268.99,5467.72,1275.06,1587593.20
68.862,255807.25,40086.18,275.00,4075.55,0.00,12905.65,44770.24,1250.06,804247.82
69.193,65606.13,24586.56,300.00,3400.38,33.33,4634.06,2066.82,1275.06,748521.11
69.524,83324.84,39985.92,1700.10,6151.26,0.00,5400.99,5134.26,625.01,1517685.87
69.855,599306.33,65072.48,1625.09,20188.52,166.67,7268.46,4267.31,2700.26,1478992.12
70.186,191145.71,55367.43,650.01,6351.34,300.00,9202.87,4500.71,1650.10,1231133.43
70.517,180349.99,152731.01,475.01,5275.92,233.34,10870.68,2533.56,1125.04,688369.16
70.848,184667.35,31599.52,150.00,6501.40,0.00,5200.92,31468.05,7451.95,1080450.90
71.179,311247.44,219542.53,950.03,10778.85,233.34,10670.53,6434.79,5676.13,1883310.98
71.510,397772.01,157074.99,2575.22,7676.96,166.67,9603.13,16943.40,3650.47,1635109.02
71.841,218708.88,40019.34,775.02,4650.72,100.00,3567.10,4967.53,1350.06,728864.37
72.172,66509.99,22449.92,600.01,5250.92,200.00,3267.03,3533.77,1200.05,663084.68
72.503,158376.96,72137.62,800.02,5651.06,266.67,7135.06,5034.22,2075.15,952189.57
72.834,298498.74,39016.74,425.01,3875.50,166.67,1566.75,1300.06,350.00,267246.83
73.165,53057.92,20580.61,175.00,2725.25,100.00,866.69,566.68,150.00,80059.65
73.496,50649.83,8002.11,50.00,2375.19,133.33,1066.71,300.00,150.00,35395.94
73.827,7335.08,8135.51,50.00,2000.13,0.00,366.67,100.00,125.00,25323.52
74.158,4967.47,8669.14,25.00,2000.13,66.67,100.00,233.34,50.00,14332.54
74.489,4300.60,6534.74,50.00,2100.15,66.67,333.34,200.00,25.00,17185.84
74.820,2466.86,6934.92,25.00,1775.10,33.33,166.67,166.67,25.00,8427.61
75.151,4634.03,24853.66,75.00,1425.07,133.33,366.67,100.00,50.00,6251.44
75.482,23818.41,6934.92,75.00,2300.18,166.67,100.00,100.00,75.00,5901.28
75.813,2166.82,6934.92,75.00,1600.09,66.67,133.33,166.67,25.00,3975.58
76.144,2333.51,5801.11,25.00,1975.13,66.67,133.33,100.00,100.00,7151.88
76.475,1433.40,8002.11,25.00,2325.18,66.67,133.33,100.00,125.00,5000.92
76.806,2233.50,6034.53,50.00,2125.15,166.67,133.33,66.67,250.00,2225.18
77.137,5701.06,7268.41,50.00,1800.11,166.67,1133.38,133.33,75.00,6126.38
77.468,2600.22,6601.44,175.00,2075.14,133.33,200.00,133.33,25.00,6001.32
77.799,1733.43,6568.09,100.00,2075.14,100.00,533.34,133.33,25.00,4150.63
78.130,2400.19,11971.38,0.00,1500.07,66.67,133.33,366.67,0.00,11179.59
78.461,2833.59,9969.94,25.00,2475.20,133.33,800.02,1433.41,125.00,406734.70
78.792,73173.44,18644.77,75.00,4550.69,300.00,2333.52,3767.16,700.02,750975.90
79.123,127391.44,26756.89,175.00,4275.61,100.00,2133.49,1233.39,500.01,313159.80
79.454,81682.74,23184.36,125.00,3325.37,100.00,1166.71,7235.17,400.01,289545.78
79.785,28659.98,9736.46,125.00,3050.31,233.34,1133.38,766.69,350.00,491409.14
80.116,91906.79,11471.00,300.00,31733.38,100.00,1666.76,3133.68,375.00,296211.90
80.448,161340.81,26623.32,225.00,3625.44,133.33,1566.75,1166.71,400.01,236892.66
80.779,142926.89,14306.74,150.00,4925.81,166.67,2833.61,4867.50,625.01,1798120.94
81.110,171078.42,41757.34,800.02,4250.60,166.67,1633.42,2633.58,10754.06,630826.67
81.441,60585.62,35875.67,50.00,4125.57,100.00,1066.71,1966.80,175.00,399654.60
81.772,215463.60,32367.80,175.00,4225.59,133.33,1766.77,4567.40,300.00,558653.53
82.103,64233.69,25521.43,75.00,6601.45,166.67,1733.44,5200.95,175.00,476130.53
82.434,87883.40,54731.80,175.00,3575.42,66.67,2000.14,4267.31,400.01,780810.66
82.765,116337.82,30898.07,200.00,5726.09,266.67,2833.61,2566.90,325.00,501595.67
83.096,77695.52,17443.35,150.00,4450.66,0.00,666.68,666.68,50.00,56065.17
83.427,6668.11,5601.03,50.00,1750.10,33.33,166.67,166.67,75.00,27126.99
83.758,2266.83,4200.58,50.00,1950.13,133.33,100.00,100.00,25.00,7552.09
84.089,233.34,4767.41,25.00,1950.13,33.33,100.00,66.67,0.00,2450.22
84.420,133.33,4600.70,100.00,1950.13,66.67,66.67,66.67,0.00,1850.13
84.751,133.33,5200.89,50.00,1650.09,0.00,0.00,33.33,0.00,1025.04
85.082,266.67,5234.24,75.00,2025.14,0.00,33.33,100.00,0.00,1700.11
85.413,133.33,4834.10,0.00,1700.10,66.67,0.00,33.33,25.00,600.01
85.744,33.33,3967.19,25.00,1500.07,66.67,66.67,100.00,50.00,525.01
86.075,66.67,4167.24,100.00,2075.14,33.33,0.00,66.67,0.00,1075.04
86.406,300.00,4467.32,0.00,1975.13,66.67,33.33,66.67,50.00,600.01
86.737,33.33,5434.31,25.00,1725.10,33.33,200.00,33.33,0.00,475.01
87.068,33.33,4033.87,25.00,1850.11,66.67,100.00,0.00,0.00,150.00
87.399,0.00,4634.04,25.00,1725.10,33.33,66.67,0.00,50.00,175.00
87.730,66.67,4600.70,0.00,2125.15,100.00,33.33,33.33,75.00,1425.07
88.061,66.67,5034.17,0.00,1975.13,0.00,33.33,33.33,0.00,50.00
88.392,33.33,4934.14,75.00,2100.15,33.33,100.00,0.00,50.00,75.00
88.723,0.00,4867.45,0.00,1625.09,66.67,0.00,33.33,0.00,125.00
89.054,133.33,4467.32,100.00,1850.11,33.33,33.33,33.33,25.00,100.00
89.385,66.67,5234.24,25.00,1975.13,0.00,66.67,66.67,25.00,125.00
89.716,33.33,4767.41,50.00,1750.10,33.33,0.00,33.33,25.00,100.00
90.047,66.67,4667.38,100.00,1950.13,0.00,0.00,0.00,0.00,75.00
90.378,33.33,5100.86,25.00,2150.15,0.00,0.00,33.33,50.00,50.00
90.705,33.33,5034.17,25.00,1975.13,100.00,33.33,33.33,25.00,100.00
